#0(degree)	e_0(degree)	cos0	e_cos0	I(mA)	e_I(mA)	
0 			1			1.000	0.000	5.900	0.020	
15			1			0.966	0.005	5.517	0.020	
30			1			0.866	0.009	4.843	0.014	
45			1			0.707	0.012	3.943	0.027	
60			1			0.500	0.015	2.469	0.004