#0(degree)	e_0(degree)	cos0	e_cos0	I(mA)	e_I(mA)	
0 			1			1.000	0.000	7.664	0.129	
15			1			0.966	0.005	7.184	0.904	
30			1			0.866	0.009	6.421	0.864	
45			1			0.707	0.012	5.100	0.657	
60			1			0.500	0.015	3.217	0.575