-3				3.46148	0.0094318256
-3.5				3.6763	0.0094264103
-4				4.0499	0.0094183721
-4.5				4.657	0.0094080808
-5				5.0773	0.0094024074
-2.5				3.29336	0.0094365616
-2				3.15326	0.0094408982
-1.5				3.07854	0.0094433742
-1				2.98514	0.0094466456
-0.5				2.91976	0.0094490615
0				2.91976	0.0094490615
0.5				2.91976	0.0094490615
1				2.99448	0.0094463091
1.5				3.07854	0.0094433742
2				3.15326	0.0094408982
2.5				3.27468	0.0094371182
3				3.46148	0.0094318256
3.5				3.6763	0.0094264103
4				4.0499	0.0094183721
4.5				4.657	0.0094080808
5				5.0773	0.0094024074

