0.0 0.004231417814341234 
5.e-5 0.0042314178143407 
1.e-4 0.004231417814332685 
1.5000000000000001e-4 0.004231417814297953 
2.e-4 0.004231417814204443 
2.5e-4 0.004231417814007271 
3.0000000000000003e-4 0.004231417813648723 
3.5000000000000005e-4 0.004231417813058264 
4.000000000000001e-4 0.004231417812152527 
4.500000000000001e-4 0.004231417810835319 
5.000000000000001e-4 0.004231417808997616 
5.500000000000001e-4 0.004231417806517561 
6.000000000000002e-4 0.004231417803260468 
6.500000000000002e-4 0.004231417799078807 
7.000000000000002e-4 0.004231417793812217 
7.500000000000002e-4 0.0042314177872874986 
8.000000000000003e-4 0.0042314177793186004 
8.500000000000003e-4 0.0042314177697066364 
9.000000000000003e-4 0.004231417758239864 
9.500000000000003e-4 0.004231417744693694 
0.0010000000000000002 0.004231417728830681 
0.0010500000000000002 0.00423141771040052 
0.0011 0.004231417689140047 
0.00115 0.004231417664773224 
0.0012 0.004231417637011154 
0.0012499999999999998 0.004231417605552062 
0.0012999999999999997 0.004231417570081288 
0.0013499999999999996 0.004231417530271295 
0.0013999999999999996 0.004231417485781657 
0.0014499999999999995 0.004231417436259054 
0.0014999999999999994 0.004231417381337266 
0.0015499999999999993 0.004231417320637171 
0.0015999999999999992 0.004231417253766736 
0.0016499999999999991 0.0042314171803210145 
0.001699999999999999 0.004231417099882137 
0.001749999999999999 0.004231417012019308 
0.0017999999999999989 0.004231416916288795 
0.0018499999999999988 0.004231416812233927 
0.0018999999999999987 0.00423141669938509 
0.0019499999999999986 0.004231416577259707 
0.0019999999999999987 0.004231416445362249 
0.002049999999999999 0.004231416303184212 
0.002099999999999999 0.0042314161502041165 
0.002149999999999999 0.0042314159858875015 
0.0021999999999999993 0.0042314158096869135 
0.0022499999999999994 0.004231415621041902 
0.0022999999999999995 0.004231415419379 
0.0023499999999999997 0.004231415204111734 
0.0024 0.004231414974640599 
0.00245 0.004231414730353057 
0.0025 0.00423141447062353 
0.00255 0.004231414194813382 
0.0026000000000000003 0.004231413902270923 
0.0026500000000000004 0.004231413592331383 
0.0027000000000000006 0.004231413264316916 
0.0027500000000000007 0.004231412917536587 
0.002800000000000001 0.004231412551286353 
0.002850000000000001 0.004231412164849064 
0.002900000000000001 0.004231411757494445 
0.0029500000000000012 0.0042314113284790894 
0.0030000000000000014 0.004231410877046449 
0.0030500000000000015 0.004231410402426815 
0.0031000000000000016 0.004231409903837315 
0.0031500000000000018 0.0042314093804819005 
0.003200000000000002 0.004231408831551328 
0.003250000000000002 0.004231408256223155 
0.003300000000000002 0.004231407653661727 
0.0033500000000000023 0.0042314070230181616 
0.0034000000000000024 0.004231406363430336 
0.0034500000000000025 0.004231405674022878 
0.0035000000000000027 0.0042314049539071506 
0.003550000000000003 0.004231404202181241 
0.003600000000000003 0.0042314034179299406 
0.003650000000000003 0.004231402600224745 
0.003700000000000003 0.004231401748123824 
0.0037500000000000033 0.00423140086067202 
0.0038000000000000035 0.004231399936900829 
0.0038500000000000036 0.004231398975828385 
0.0039000000000000037 0.004231397976459451 
0.003950000000000004 0.004231396937785401 
0.0040000000000000036 0.0042313958587842 
0.004050000000000003 0.004231394738420399 
0.004100000000000003 0.004231393575645116 
0.004150000000000003 0.004231392369396014 
0.004200000000000002 0.004231391118597294 
0.004250000000000002 0.0042313898221596775 
0.004300000000000002 0.0042313884789803875 
0.0043500000000000014 0.004231387087943133 
0.004400000000000001 0.0042313856479180975 
0.004450000000000001 0.004231384157761912 
0.0045000000000000005 0.004231382616317651 
0.00455 0.0042313810224148055 
0.0046 0.004231379374869269 
0.00465 0.004231377672483324 
0.004699999999999999 0.00423137591404562 
0.004749999999999999 0.0042313740983311535 
0.004799999999999999 0.004231372224101258 
0.004849999999999998 0.004231370290103579 
0.004899999999999998 0.004231368295072059 
0.004949999999999998 0.004231366237726917 
0.0049999999999999975 0.004231364116774628 
0.005049999999999997 0.004231361930907913 
0.005099999999999997 0.004231359678805709 
0.005149999999999997 0.004231357359133154 
0.005199999999999996 0.004231354970541573 
0.005249999999999996 0.004231352511668444 
0.005299999999999996 0.004231349981137396 
0.005349999999999995 0.004231347377558172 
0.005399999999999995 0.004231344699526626 
0.005449999999999995 0.004231341945624686 
0.0054999999999999945 0.004231339114420342 
0.005549999999999994 0.004231336204467624 
0.005599999999999994 0.00423133321430658 
0.005649999999999994 0.004231330142463257 
0.005699999999999993 0.004231326987449676 
0.005749999999999993 0.0042313237477638104 
0.005799999999999993 0.0042313204218895235 
0.005849999999999992 0.004231317008296719 
0.005899999999999992 0.004231313505441061 
0.005949999999999992 0.004231309911764116 
0.0059999999999999915 0.004231306225693301 
0.006049999999999991 0.004231302445641844 
0.006099999999999991 0.004231298570008774 
0.0061499999999999905 0.004231294597178893 
0.00619999999999999 0.004231290525522751 
0.00624999999999999 0.004231286353396625 
0.00629999999999999 0.004231282079142497 
0.006349999999999989 0.004231277701088021 
0.006399999999999989 0.0042312732175465075 
0.006449999999999989 0.004231268626816896 
0.006499999999999988 0.004231263927183733 
0.006549999999999988 0.00423125911691714 
0.006599999999999988 0.004231254194272797 
0.0066499999999999875 0.004231249157491911 
0.006699999999999987 0.004231244004801192 
0.006749999999999987 0.00423123873441283 
0.006799999999999987 0.004231233344524465 
0.006849999999999986 0.004231227833319163 
0.006899999999999986 0.004231222198965394 
0.006949999999999986 0.004231216439616995 
0.006999999999999985 0.004231210553413154 
0.007049999999999985 0.004231204538478373 
0.007099999999999985 0.004231198392922451 
0.0071499999999999845 0.004231192114840454 
0.007199999999999984 0.004231185702312678 
0.007249999999999984 0.004231179153404635 
0.007299999999999984 0.004231172466167016 
0.007349999999999983 0.004231165638635666 
0.007399999999999983 0.004231158668831558 
0.007449999999999983 0.004231151554760758 
0.007499999999999982 0.004231144294414401 
0.007549999999999982 0.004231136885768662 
0.007599999999999982 0.004231129326784724 
0.0076499999999999815 0.004231121615408756 
0.007699999999999981 0.004231113749571869 
0.007749999999999981 0.004231105727190105 
0.0077999999999999806 0.004231097546164388 
0.00784999999999998 0.004231089204380509 
0.00789999999999998 0.004231080699709088 
0.00794999999999998 0.004231072030005546 
0.00799999999999998 0.0042310631931100715 
0.008049999999999979 0.004231054186847591 
0.008099999999999979 0.004231045009027739 
0.008149999999999978 0.004231035657444829 
0.008199999999999978 0.004231026129877809 
0.008249999999999978 0.0042310164240902505 
0.008299999999999978 0.004231006537830296 
0.008349999999999977 0.004230996468830642 
0.008399999999999977 0.004230986214808494 
0.008449999999999977 0.00423097577346555 
0.008499999999999976 0.004230965142487947 
0.008549999999999976 0.004230954319546244 
0.008599999999999976 0.004230943302295387 
0.008649999999999975 0.004230932088374662 
0.008699999999999975 0.004230920675407683 
0.008749999999999975 0.00423090906100234 
0.008799999999999975 0.004230897242750767 
0.008849999999999974 0.004230885218229324 
0.008899999999999974 0.004230872984998538 
0.008949999999999974 0.004230860540603088 
0.008999999999999973 0.004230847882571759 
0.009049999999999973 0.004230835008417415 
0.009099999999999973 0.004230821915636955 
0.009149999999999972 0.004230808601711282 
0.009199999999999972 0.004230795064105269 
0.009249999999999972 0.004230781300267717 
0.009299999999999971 0.004230767307631329 
0.009349999999999971 0.0042307530836126605 
0.009399999999999971 0.004230738625612093 
0.00944999999999997 0.004230723931013792 
0.00949999999999997 0.004230708997185673 
0.00954999999999997 0.004230693821479363 
0.00959999999999997 0.004230678401230162 
0.00964999999999997 0.004230662733757004 
0.009699999999999969 0.0042306468163624275 
0.009749999999999969 0.004230630646332526 
0.009799999999999968 0.004230614220936915 
0.009849999999999968 0.004230597537428697 
0.009899999999999968 0.004230580593044414 
0.009949999999999968 0.004230563385004018 
0.009999999999999967 0.004230545910510827 
0.010049999999999967 0.004230528166751483 
0.010099999999999967 0.004230510150895916 
0.010149999999999966 0.0042304918600973105 
0.010199999999999966 0.004230473291492047 
0.010249999999999966 0.004230454442199685 
0.010299999999999965 0.0042304353093229035 
0.010349999999999965 0.00423041588994747 
0.010399999999999965 0.004230396181142198 
0.010449999999999965 0.004230376179958905 
0.010499999999999964 0.004230355883432372 
0.010549999999999964 0.0042303352885803 
0.010599999999999964 0.004230314392403275 
0.010649999999999963 0.0042302931918847125 
0.010699999999999963 0.004230271683990831 
0.010749999999999963 0.004230249865670598 
0.010799999999999962 0.004230227733855695 
0.010849999999999962 0.004230205285460471 
0.010899999999999962 0.0042301825173818985 
0.010949999999999962 0.0042301594264995334 
0.010999999999999961 0.004230136009675467 
0.011049999999999961 0.004230112263754287 
0.01109999999999996 0.004230088185563037 
0.01114999999999996 0.00423006377191116 
0.01119999999999996 0.004230039019590464 
0.01124999999999996 0.0042300139253750755 
0.01129999999999996 0.004229988486021398 
0.011349999999999959 0.004229962698268053 
0.011399999999999959 0.004229936558835855 
0.011449999999999958 0.004229910064427756 
0.011499999999999958 0.004229883211728792 
0.011549999999999958 0.004229855997406051 
0.011599999999999958 0.004229828418108623 
0.011649999999999957 0.004229800470467549 
0.011699999999999957 0.0042297721510957806 
0.011749999999999957 0.004229743456588126 
0.011799999999999956 0.004229714383521212 
0.011849999999999956 0.004229684928453428 
0.011899999999999956 0.0042296550879248876 
0.011949999999999955 0.004229624858457374 
0.011999999999999955 0.004229594236554295 
0.012049999999999955 0.004229563218700638 
0.012099999999999955 0.004229531801362912 
0.012149999999999954 0.0042294999809891105 
0.012199999999999954 0.004229467754008659 
0.012249999999999954 0.004229435116832364 
0.012299999999999953 0.004229402065852366 
0.012349999999999953 0.004229368597442088 
0.012399999999999953 0.004229334707956187 
0.012449999999999952 0.004229300393730512 
0.012499999999999952 0.004229265651082035 
0.012549999999999952 0.004229230476308822 
0.012599999999999952 0.004229194865689973 
0.012649999999999951 0.004229158815485569 
0.012699999999999951 0.004229122321936625 
0.01274999999999995 0.004229085381265038 
0.01279999999999995 0.004229047989673538 
0.01284999999999995 0.00422901014334563 
0.01289999999999995 0.004228971838445553 
0.01294999999999995 0.004228933071118216 
0.012999999999999949 0.004228893837489155 
0.013049999999999949 0.004228854133664481 
0.013099999999999948 0.004228813955730817 
0.013149999999999948 0.004228773299755256 
0.013199999999999948 0.0042287321617853054 
0.013249999999999948 0.004228690537848832 
0.013299999999999947 0.004228648423954006 
0.013349999999999947 0.004228605816089258 
0.013399999999999947 0.004228562710223212 
0.013449999999999946 0.004228519102304639 
0.013499999999999946 0.004228474988262402 
0.013549999999999946 0.0042284303640054 
0.013599999999999945 0.004228385225422514 
0.013649999999999945 0.004228339568382552 
0.013699999999999945 0.004228293388734197 
0.013749999999999945 0.0042282466823059415 
0.013799999999999944 0.004228199444906046 
0.013849999999999944 0.004228151672322471 
0.013899999999999944 0.00422810336032283 
0.013949999999999943 0.00422805450465433 
0.013999999999999943 0.0042280051010437115 
0.014049999999999943 0.004227955145197197 
0.014099999999999942 0.004227904632800431 
0.014149999999999942 0.004227853559518426 
0.014199999999999942 0.004227801920995503 
0.014249999999999942 0.004227749712855231 
0.014299999999999941 0.0042276969307003765 
0.014349999999999941 0.00422764357011284 
0.01439999999999994 0.0042275896266536 
0.01444999999999994 0.004227535095862656 
0.01449999999999994 0.0042274799732589605 
0.01454999999999994 0.0042274242543403825 
0.01459999999999994 0.004227367934583616 
0.014649999999999939 0.004227311009444153 
0.014699999999999939 0.004227253474356202 
0.014749999999999939 0.004227195324732639 
0.014799999999999938 0.004227136555964942 
0.014849999999999938 0.004227077163423138 
0.014899999999999938 0.0042270171424557326 
0.014949999999999937 0.0042269564883896625 
0.014999999999999937 0.00422689519653022 
0.015049999999999937 0.004226833262161004 
0.015099999999999936 0.004226770680543851 
0.015149999999999936 0.004226707446918785 
0.015199999999999936 0.004226643556503938 
0.015249999999999935 0.004226579004495504 
0.015299999999999935 0.004226513786067671 
0.015349999999999935 0.00422644789637256 
0.015399999999999935 0.004226381330540159 
0.015449999999999934 0.004226314083678262 
0.015499999999999934 0.004226246150872415 
0.015549999999999934 0.004226177527185836 
0.015599999999999933 0.004226108207659367 
0.015649999999999935 0.004226038187311402 
0.015699999999999936 0.004225967461137828 
0.015749999999999938 0.004225896024111955 
0.01579999999999994 0.004225823871184462 
0.01584999999999994 0.004225750997283323 
0.015899999999999942 0.004225677397313743 
0.015949999999999943 0.004225603066158104 
0.015999999999999945 0.004225527998675885 
0.016049999999999946 0.004225452189703611 
0.016099999999999948 0.004225375634054776 
0.01614999999999995 0.004225298326519788 
0.01619999999999995 0.004225220261865892 
0.016249999999999952 0.004225141434837112 
0.016299999999999953 0.0042250618401541845 
0.016349999999999955 0.004224981472514488 
0.016399999999999956 0.00422490032659198 
0.016449999999999958 0.004224818397037129 
0.01649999999999996 0.004224735678476848 
0.01654999999999996 0.004224652165514428 
0.016599999999999962 0.0042245678527294645 
0.016649999999999963 0.004224482734677802 
0.016699999999999965 0.004224396805891454 
0.016749999999999966 0.004224310060878543 
0.016799999999999968 0.004224222494123227 
0.01684999999999997 0.004224134100085638 
0.01689999999999997 0.004224044873201805 
0.016949999999999972 0.004223954807883591 
0.016999999999999973 0.004223863898518624 
0.017049999999999975 0.004223772139470224 
0.017099999999999976 0.004223679525077338 
0.017149999999999978 0.004223586049654464 
0.01719999999999998 0.004223491707491592 
0.01724999999999998 0.004223396492854123 
0.017299999999999982 0.004223300399982803 
0.017349999999999983 0.004223203423093661 
0.017399999999999985 0.004223105556377919 
0.017449999999999986 0.004223006794001941 
0.017499999999999988 0.004222907130107153 
0.01754999999999999 0.004222806558809971 
0.01759999999999999 0.004222705074201731 
0.017649999999999992 0.0042226026703486245 
0.017699999999999994 0.0042224993412916115 
0.017749999999999995 0.004222395081046363 
0.017799999999999996 0.004222289883603185 
0.017849999999999998 0.00422218374292694 
0.0179 0.004222076652956982 
0.01795 0.004221968607607084 
0.018000000000000002 0.004221859600765358 
0.018050000000000004 0.004221749626294192 
0.018100000000000005 0.004221638678030166 
0.018150000000000006 0.004221526749783985 
0.018200000000000008 0.00422141383534041 
0.01825000000000001 0.004221299928458172 
0.01830000000000001 0.00422118502286991 
0.018350000000000012 0.00422106911228209 
0.018400000000000014 0.0042209521903749355 
0.018450000000000015 0.004220834250802345 
0.018500000000000016 0.004220715287191829 
0.018550000000000018 0.004220595293144425 
0.01860000000000002 0.004220474262234627 
0.01865000000000002 0.004220352188010314 
0.018700000000000022 0.004220229063992666 
0.018750000000000024 0.004220104883676095 
0.018800000000000025 0.00421997964052817 
0.018850000000000026 0.004219853327989536 
0.018900000000000028 0.004219725939473843 
0.01895000000000003 0.004219597468367666 
0.01900000000000003 0.004219467908030437 
0.019050000000000032 0.004219337251794351 
0.019100000000000034 0.00421920549296431 
0.019150000000000035 0.004219072624817835 
0.019200000000000036 0.004218938640604989 
0.019250000000000038 0.004218803533548302 
0.01930000000000004 0.004218667296842698 
0.01935000000000004 0.004218529923655405 
0.019400000000000042 0.004218391407125895 
0.019450000000000044 0.00421825174036579 
0.019500000000000045 0.004218110916458796 
0.019550000000000047 0.0042179689284606164 
0.019600000000000048 0.00421782576939888 
0.01965000000000005 0.004217681432273064 
0.01970000000000005 0.004217535910054398 
0.019750000000000052 0.004217389195685817 
0.019800000000000054 0.004217241282081854 
0.019850000000000055 0.004217092162128574 
0.019900000000000057 0.0042169418286834934 
0.019950000000000058 0.004216790274575504 
0.02000000000000006 0.004216637492604783 
0.02005000000000006 0.004216483475542724 
0.020100000000000062 0.004216328216131858 
0.020150000000000064 0.0042161717070857635 
0.020200000000000065 0.004216013941088999 
0.020250000000000067 0.00421585491079701 
0.020300000000000068 0.0042156946088360596 
0.02035000000000007 0.004215533027803145 
0.02040000000000007 0.004215370160265914 
0.020450000000000072 0.004215205998762592 
0.020500000000000074 0.004215040535801888 
0.020550000000000075 0.00421487376386293 
0.020600000000000077 0.004214705675395176 
0.020650000000000078 0.004214536262818329 
0.02070000000000008 0.004214365518522261 
0.02075000000000008 0.004214193434866936 
0.020800000000000082 0.004214020004182315 
0.020850000000000084 0.004213845218768293 
0.020900000000000085 0.0042136690708946024 
0.020950000000000087 0.004213491552800736 
0.021000000000000088 0.004213312656695872 
0.02105000000000009 0.004213132374758777 
0.02110000000000009 0.004212950699137739 
0.021150000000000092 0.00421276762195048 
0.021200000000000094 0.004212583135284069 
0.021250000000000095 0.004212397231194849 
0.021300000000000097 0.004212209901708346 
0.021350000000000098 0.00421202113881919 
0.0214000000000001 0.004211830934491035 
0.0214500000000001 0.004211639280656475 
0.021500000000000102 0.004211446169216955 
0.021550000000000104 0.004211251592042699 
0.021600000000000105 0.004211055540972617 
0.021650000000000107 0.0042108580078142315 
0.021700000000000108 0.004210658984343584 
0.02175000000000011 0.004210458462305166 
0.02180000000000011 0.004210256433411814 
0.021850000000000112 0.004210052889344654 
0.021900000000000114 0.004209847821752993 
0.021950000000000115 0.004209641222254254 
0.022000000000000117 0.004209433082433877 
0.022050000000000118 0.00420922339384525 
0.02210000000000012 0.004209012148009617 
0.02215000000000012 0.004208799336415994 
0.022200000000000122 0.00420858495052109 
0.022250000000000124 0.004208368981749218 
0.022300000000000125 0.004208151421492219 
0.022350000000000127 0.004207932261109364 
0.022400000000000128 0.00420771149192729 
0.02245000000000013 0.004207489105239898 
0.02250000000000013 0.00420726509230828 
0.022550000000000132 0.004207039444360629 
0.022600000000000134 0.004206812152592158 
0.022650000000000135 0.004206583208165018 
0.022700000000000137 0.004206352602208207 
0.022750000000000138 0.00420612032581749 
0.02280000000000014 0.004205886370055321 
0.02285000000000014 0.004205650725950749 
0.022900000000000142 0.004205413384499336 
0.022950000000000144 0.004205174336663077 
0.023000000000000145 0.00420493357337031 
0.023050000000000147 0.0042046910855156406 
0.023100000000000148 0.00420444686395985 
0.02315000000000015 0.004204200899529812 
0.02320000000000015 0.004203953183018413 
0.023250000000000152 0.004203703705184457 
0.023300000000000154 0.0042034524567526035 
0.023350000000000155 0.004203199428413253 
0.023400000000000157 0.004202944610822491 
0.023450000000000158 0.004202687994601988 
0.02350000000000016 0.0042024295703389156 
0.02355000000000016 0.004202169328585872 
0.023600000000000163 0.004201907259860791 
0.023650000000000164 0.004201643354646853 
0.023700000000000165 0.004201377603392414 
0.023750000000000167 0.004201109996510911 
0.023800000000000168 0.004200840524380787 
0.02385000000000017 0.004200569177345394 
0.02390000000000017 0.004200295945712921 
0.023950000000000173 0.004200020819756308 
0.024000000000000174 0.004199743789713161 
0.024050000000000175 0.004199464845785662 
0.024100000000000177 0.004199183978140499 
0.02415000000000018 0.004198901176908771 
0.02420000000000018 0.00419861643218591 
0.02425000000000018 0.004198329734031595 
0.024300000000000183 0.004198041072469672 
0.024350000000000184 0.004197750437488066 
0.024400000000000185 0.004197457819038701 
0.024450000000000187 0.004197163207037424 
0.02450000000000019 0.004196866591363901 
0.02455000000000019 0.004196567961861562 
0.02460000000000019 0.004196267308337494 
0.024650000000000193 0.004195964620562373 
0.024700000000000194 0.004195659888270378 
0.024750000000000195 0.004195353101159107 
0.024800000000000197 0.0041950442488894926 
0.0248500000000002 0.004194733321085728 
0.0249000000000002 0.004194420307335176 
0.0249500000000002 0.004194105197188294 
0.025000000000000203 0.0041937879801585455 
0.025050000000000204 0.004193468645722323 
0.025100000000000205 0.0041931471833188735 
0.025150000000000207 0.004192823582350196 
0.02520000000000021 0.004192497832180986 
0.02525000000000021 0.004192169922138536 
0.02530000000000021 0.004191839841512664 
0.025350000000000213 0.004191507579555628 
0.025400000000000214 0.0041911731254820495 
0.025450000000000216 0.004190836468468832 
0.025500000000000217 0.004190497597655077 
0.02555000000000022 0.004190156502142012 
0.02560000000000022 0.004189813170992901 
0.02565000000000022 0.004189467593232976 
0.025700000000000223 0.004189119757849349 
0.025750000000000224 0.004188769653790933 
0.025800000000000226 0.004188417269968374 
0.025850000000000227 0.004188062595253957 
0.02590000000000023 0.004187705618481536 
0.02595000000000023 0.004187346328446462 
0.02600000000000023 0.004186984713905486 
0.026050000000000233 0.004186620763576704 
0.026100000000000234 0.004186254466139466 
0.026150000000000236 0.004185885810234294 
0.026200000000000237 0.004185514784462826 
0.02625000000000024 0.0041851413773877156 
0.02630000000000024 0.004184765577532569 
0.02635000000000024 0.004184387373381868 
0.026400000000000243 0.004184006753380889 
0.026450000000000244 0.004183623705935632 
0.026500000000000246 0.004183238219412747 
0.026550000000000247 0.004182850282139449 
0.02660000000000025 0.004182459882403456 
0.02665000000000025 0.004182067008452907 
0.02670000000000025 0.004181671648496289 
0.026750000000000253 0.004181273790702368 
0.026800000000000254 0.0041808734232001085 
0.026850000000000256 0.004180470534078603 
0.026900000000000257 0.004180065111387001 
0.02695000000000026 0.0041796571431344425 
0.02700000000000026 0.004179246617289969 
0.02705000000000026 0.0041788335217824695 
0.027100000000000263 0.004178417844500598 
0.027150000000000264 0.004177999573292712 
0.027200000000000266 0.004177578695966788 
0.027250000000000267 0.004177155200290369 
0.02730000000000027 0.0041767290739904836 
0.02735000000000027 0.004176300304753576 
0.02740000000000027 0.00417586888022544 
0.027450000000000273 0.0041754347880111585 
0.027500000000000274 0.00417499801567502 
0.027550000000000276 0.004174558550740458 
0.027600000000000277 0.004174116380689992 
0.02765000000000028 0.004173671492965145 
0.02770000000000028 0.00417322387496639 
0.02775000000000028 0.0041727735140530825 
0.027800000000000283 0.004172320397543385 
0.027850000000000284 0.004171864512714216 
0.027900000000000286 0.004171405846801175 
0.027950000000000287 0.004170944386998485 
0.02800000000000029 0.0041704801204589265 
0.02805000000000029 0.0041700130342937755 
0.02810000000000029 0.004169543115572738 
0.028150000000000293 0.004169070351323892 
0.028200000000000294 0.0041685947285336295 
0.028250000000000296 0.004168116234146583 
0.028300000000000297 0.004167634855065577 
0.0283500000000003 0.004167150578151567 
0.0284000000000003 0.004166663390223575 
0.0284500000000003 0.004166173278058634 
0.028500000000000303 0.0041656802283917315 
0.028550000000000304 0.0041651842279157485 
0.028600000000000306 0.0041646852632814075 
0.028650000000000307 0.00416418332109721 
0.02870000000000031 0.004163678387929387 
0.02875000000000031 0.004163170450301841 
0.02880000000000031 0.004162659494696088 
0.028850000000000313 0.004162145507551215 
0.028900000000000314 0.004161628475263815 
0.028950000000000316 0.0041611083841879394 
0.029000000000000317 0.004160585220635049 
0.02905000000000032 0.004160058970873954 
0.02910000000000032 0.0041595296211307765 
0.02915000000000032 0.004158997157588893 
0.029200000000000323 0.004158461566388878 
0.029250000000000324 0.004157922833628477 
0.029300000000000326 0.0041573809453625335 
0.029350000000000327 0.004156835887602963 
0.02940000000000033 0.004156287646318695 
0.02945000000000033 0.004155736207435635 
0.02950000000000033 0.004155181556836605 
0.029550000000000333 0.004154623680361323 
0.029600000000000334 0.004154062563806342 
0.029650000000000336 0.004153498192925013 
0.029700000000000337 0.004152930553427443 
0.02975000000000034 0.004152359630980457 
0.02980000000000034 0.004151785411207554 
0.02985000000000034 0.0041512078796888735 
0.029900000000000343 0.004150627021961149 
0.029950000000000344 0.0041500428235176755 
0.030000000000000346 0.004149455269808279 
0.030050000000000347 0.004148864346239268 
0.03010000000000035 0.004148270038173407 
0.03015000000000035 0.004147672330929885 
0.03020000000000035 0.004147071209784273 
0.030250000000000353 0.004146466659968499 
0.030300000000000354 0.004145858666670817 
0.030350000000000356 0.004145247215035773 
0.030400000000000357 0.004144632290164178 
0.03045000000000036 0.004144013877113083 
0.03050000000000036 0.0041433919608957395 
0.03055000000000036 0.004142766526481591 
0.030600000000000363 0.00414213755879623 
0.030650000000000364 0.0041415050427213865 
0.030700000000000366 0.0041408689630949 
0.030750000000000367 0.004140229304710693 
0.03080000000000037 0.004139586052318759 
0.03085000000000037 0.004138939190625128 
0.03090000000000037 0.004138288704291864 
0.030950000000000373 0.004137634577937036 
0.031000000000000374 0.004136976796134703 
0.031050000000000376 0.004136315343414897 
0.031100000000000377 0.004135650204263612 
0.03115000000000038 0.004134981363122786 
0.03120000000000038 0.004134308804390292 
0.03125000000000038 0.004133632512419921 
0.03130000000000038 0.004132952471521378 
0.031350000000000385 0.004132268665960263 
0.031400000000000386 0.004131581079958084 
0.03145000000000039 0.004130889697692223 
0.03150000000000039 0.004130194503295945 
0.03155000000000039 0.004129495480858394 
0.03160000000000039 0.004128792614424587 
0.03165000000000039 0.004128085887995413 
0.031700000000000395 0.00412737528552763 
0.031750000000000396 0.004126660790933865 
0.0318000000000004 0.004125942388082624 
0.0318500000000004 0.004125220060798281 
0.0319000000000004 0.0041244937928611005 
0.0319500000000004 0.00412376356800722 
0.0320000000000004 0.004123029369928681 
0.032050000000000405 0.00412229118227342 
0.032100000000000406 0.00412154898864529 
0.03215000000000041 0.004120802772604057 
0.03220000000000041 0.004120052517665435 
0.03225000000000041 0.0041192982073010725 
0.03230000000000041 0.004118539824938591 
0.03235000000000041 0.0041177773539615905 
0.032400000000000415 0.00411701077770967 
0.032450000000000416 0.004116240079478444 
0.03250000000000042 0.00411546524251957 
0.03255000000000042 0.004114686250040766 
0.03260000000000042 0.004113903085205835 
0.03265000000000042 0.004113115731134694 
0.03270000000000042 0.004112324170903397 
0.032750000000000425 0.004111528387544167 
0.032800000000000426 0.0041107283640454215 
0.03285000000000043 0.004109924083351813 
0.03290000000000043 0.004109115528364253 
0.03295000000000043 0.00410830268193995 
0.03300000000000043 0.004107485526892448 
0.03305000000000043 0.004106664045991667 
0.033100000000000435 0.004105838221963934 
0.033150000000000436 0.004105008037492033 
0.03320000000000044 0.004104173475215244 
0.03325000000000044 0.0041033345177293925 
0.03330000000000044 0.00410249114758689 
0.03335000000000044 0.004101643347296783 
0.03340000000000044 0.00410079109932481 
0.033450000000000445 0.004099934386093443 
0.033500000000000446 0.004099073189981953 
0.03355000000000045 0.004098207493326456 
0.03360000000000045 0.00409733727841997 
0.03365000000000045 0.004096462527512485 
0.03370000000000045 0.0040955832228110065 
0.03375000000000045 0.004094699346479635 
0.033800000000000455 0.004093810880639623 
0.033850000000000456 0.004092917807369437 
0.03390000000000046 0.004092020108704834 
0.03395000000000046 0.004091117766638935 
0.03400000000000046 0.004090210763122275 
0.03405000000000046 0.004089299080062905 
0.03410000000000046 0.004088382699326456 
0.034150000000000465 0.004087461602736211 
0.034200000000000466 0.004086535772073197 
0.03425000000000047 0.004085605189076256 
0.03430000000000047 0.00408466983544214 
0.03435000000000047 0.004083729692825589 
0.03440000000000047 0.0040827847428394235 
0.03445000000000047 0.004081834967054631 
0.034500000000000475 0.004080880347000465 
0.034550000000000476 0.004079920864164531 
0.03460000000000048 0.004078956499992892 
0.03465000000000048 0.0040779872358901615 
0.03470000000000048 0.004077013053219609 
0.03475000000000048 0.004076033933303259 
0.03480000000000048 0.004075049857421995 
0.034850000000000485 0.004074060806815675 
0.034900000000000486 0.004073066762683237 
0.03495000000000049 0.00407206770618281 
0.03500000000000049 0.004071063618431831 
0.03505000000000049 0.004070054480507156 
0.03510000000000049 0.004069040273445195 
0.03515000000000049 0.004068020978242006 
0.035200000000000495 0.00406699657585345 
0.035250000000000496 0.004065967047195298 
0.0353000000000005 0.00406493237314336 
0.0353500000000005 0.004063892534533626 
0.0354000000000005 0.004062847512162388 
0.0354500000000005 0.004061797286786388 
0.0355000000000005 0.004060741839122942 
0.035550000000000505 0.004059681149850098 
0.035600000000000506 0.004058615199606767 
0.03565000000000051 0.004057543968992866 
0.03570000000000051 0.004056467438569484 
0.03575000000000051 0.00405538558885901 
0.03580000000000051 0.00405429840034531 
0.03585000000000051 0.004053205853473863 
0.035900000000000515 0.004052107928651931 
0.035950000000000516 0.004051004606248721 
0.03600000000000052 0.0040498958665955405 
0.03605000000000052 0.004048781689985978 
0.03610000000000052 0.004047662056676056 
0.03615000000000052 0.004046536946884419 
0.03620000000000052 0.004045406340792498 
0.036250000000000525 0.004044270218544689 
0.036300000000000526 0.004043128560248545 
0.03635000000000053 0.00404198134597494 
0.03640000000000053 0.004040828555758272 
0.03645000000000053 0.004039670169596645 
0.03650000000000053 0.0040385061674520625 
0.03655000000000053 0.004037336529250621 
0.036600000000000535 0.0040361612348827035 
0.036650000000000536 0.004034980264203193 
0.03670000000000054 0.00403379359703166 
0.03675000000000054 0.004032601213152583 
0.03680000000000054 0.004031403092315547 
0.03685000000000054 0.004030199214235464 
0.036900000000000543 0.004028989558592783 
0.036950000000000545 0.004027774105033712 
0.037000000000000546 0.004026552833170439 
0.03705000000000055 0.004025325722581353 
0.03710000000000055 0.004024092752811278 
0.03715000000000055 0.004022853903371698 
0.03720000000000055 0.004021609153740996 
0.037250000000000554 0.004020358483364691 
0.037300000000000555 0.004019101871655673 
0.037350000000000556 0.004017839297994451 
0.03740000000000056 0.0040165707417293955 
0.03745000000000056 0.004015296182177001 
0.03750000000000056 0.004014015598622123 
0.03755000000000056 0.004012728970318244 
0.037600000000000564 0.004011436276487735 
0.037650000000000565 0.00401013749632211 
0.037700000000000566 0.0040088326089823 
0.03775000000000057 0.004007521593598925 
0.03780000000000057 0.0040062044292725595 
0.03785000000000057 0.004004881095074012 
0.03790000000000057 0.004003551570044617 
0.037950000000000574 0.004002215833196493 
0.038000000000000575 0.004000873863512859 
0.038050000000000576 0.003999525639948302 
0.03810000000000058 0.003998171141429089 
0.03815000000000058 0.00399681034685345 
0.03820000000000058 0.003995443235091892 
0.03825000000000058 0.003994069784987492 
0.038300000000000584 0.003992689975356217 
0.038350000000000585 0.003991303784987224 
0.038400000000000586 0.003989911192643192 
0.03845000000000059 0.003988512177060625 
0.03850000000000059 0.003987106716950184 
0.03855000000000059 0.0039856947909970115 
0.03860000000000059 0.0039842763778610655 
0.038650000000000594 0.003982851456177453 
0.038700000000000595 0.00398142000455676 
0.038750000000000596 0.0039799820015854045 
0.0388000000000006 0.003978537425825975 
0.0388500000000006 0.003977086255817587 
0.0389000000000006 0.003975628470076226 
0.0389500000000006 0.003974164047095122 
0.039000000000000604 0.003972692965345088 
0.039050000000000605 0.003971215203274904 
0.039100000000000606 0.003969730739311676 
0.03915000000000061 0.003968239551861219 
0.03920000000000061 0.003966741619308417 
0.03925000000000061 0.003965236920017623 
0.03930000000000061 0.003963725432333032 
0.039350000000000614 0.003962207134579075 
0.039400000000000615 0.00396068200506081 
0.039450000000000617 0.003959150022064321 
0.03950000000000062 0.003957611163857117 
0.03955000000000062 0.003956065408688543 
0.03960000000000062 0.003954512734790181 
0.03965000000000062 0.003952953120376273 
0.039700000000000624 0.003951386543644132 
0.039750000000000625 0.003949812982774569 
0.03980000000000063 0.003948232415932315 
0.03985000000000063 0.003946644821266454 
0.03990000000000063 0.003945050176910862 
0.03995000000000063 0.003943448460984637 
0.04000000000000063 0.003941839651592553 
0.040050000000000634 0.003940223726825499 
0.040100000000000635 0.003938600664760939 
0.04015000000000064 0.003936970443463358 
0.04020000000000064 0.0039353330409847365 
0.04025000000000064 0.003933688435365006 
0.04030000000000064 0.003932036604632519 
0.04035000000000064 0.0039303775268045345 
0.040400000000000644 0.003928711179887679 
0.040450000000000645 0.003927037541878444 
0.04050000000000065 0.003925356590763668 
0.04055000000000065 0.003923668304521028 
0.04060000000000065 0.0039219726611195395 
0.04065000000000065 0.003920269638520054 
0.04070000000000065 0.0039185592146757705 
0.040750000000000654 0.003916841367532738 
0.040800000000000655 0.003915116075030378 
0.04085000000000066 0.003913383315101997 
0.04090000000000066 0.0039116430656753205 
0.04095000000000066 0.003909895304673015 
0.04100000000000066 0.0039081400100132195 
0.04105000000000066 0.003906377159610091 
0.041100000000000664 0.0039046067313743414 
0.041150000000000665 0.0039028287032137937 
0.04120000000000067 0.0039010430530339243 
0.04125000000000067 0.0038992497587384263 
0.04130000000000067 0.0038974487982297687 
0.04135000000000067 0.0038956401494097655 
0.04140000000000067 0.0038938237901801525 
0.041450000000000674 0.0038919996984431533 
0.041500000000000675 0.0038901678521020633 
0.04155000000000068 0.003888328229061846 
0.04160000000000068 0.0038864808072297087 
0.04165000000000068 0.003884625564515716 
0.04170000000000068 0.0038827624788333715 
0.04175000000000068 0.0038808915281002363 
0.041800000000000684 0.0038790126902385445 
0.041850000000000685 0.003877125943175803 
0.04190000000000069 0.003875231264845423 
0.04195000000000069 0.0038733286331873477 
0.04200000000000069 0.0038714180261486724 
0.04205000000000069 0.003869499421684292 
0.04210000000000069 0.0038675727977575346 
0.042150000000000694 0.003865638132340811 
0.042200000000000695 0.0038636954034162595 
0.0422500000000007 0.0038617445889764105 
0.0423000000000007 0.0038597856670248435 
0.0423500000000007 0.0038578186155768506 
0.0424000000000007 0.0038558434126601086 
0.0424500000000007 0.0038538600363153615 
0.042500000000000704 0.003851868464597094 
0.042550000000000705 0.0038498686755742205 
0.04260000000000071 0.0038478606473307795 
0.04265000000000071 0.003845844357966627 
0.04270000000000071 0.0038438197855981417 
0.04275000000000071 0.0038417869083589274 
0.04280000000000071 0.0038397457044005326 
0.042850000000000714 0.00383769615189316 
0.042900000000000715 0.0038356382290263957 
0.04295000000000072 0.003833571914009933 
0.04300000000000072 0.0038314971850743093 
0.04305000000000072 0.0038294140204716397 
0.04310000000000072 0.0038273223984763684 
0.04315000000000072 0.0038252222973860074 
0.043200000000000724 0.003823113695521898 
0.043250000000000725 0.003820996571229972 
0.04330000000000073 0.0038188709028815064 
0.04335000000000073 0.0038167366688739057 
0.04340000000000073 0.0038145938476314666 
0.04345000000000073 0.0038124424176061676 
0.04350000000000073 0.0038102823572784463 
0.043550000000000734 0.0038081136451579996 
0.043600000000000735 0.0038059362597845686 
0.04365000000000074 0.003803750179728754 
0.04370000000000074 0.0038015553835928115 
0.04375000000000074 0.0037993518500114717 
0.04380000000000074 0.0037971395576527557 
0.04385000000000074 0.0037949184852187927 
0.043900000000000744 0.003792688611446656 
0.043950000000000745 0.0037904499151091967 
0.04400000000000075 0.0037882023750158795 
0.04405000000000075 0.003785945970013619 
0.04410000000000075 0.0037836806789876454 
0.04415000000000075 0.0037814064808623523 
0.04420000000000075 0.003779123354602151 
0.044250000000000754 0.0037768312792123477 
0.044300000000000755 0.003774530233740002 
0.04435000000000076 0.0037722201972748143 
0.04440000000000076 0.003769901148950003 
0.04445000000000076 0.0037675730679431847 
0.04450000000000076 0.0037652359334772777 
0.04455000000000076 0.0037628897248213953 
0.044600000000000764 0.003760534421291743 
0.044650000000000765 0.00375817000225254 
0.04470000000000077 0.003755796447116916 
0.04475000000000077 0.0037534137353478414 
0.04480000000000077 0.0037510218464590485 
0.04485000000000077 0.0037486207600159584 
0.04490000000000077 0.0037462104556366216 
0.044950000000000774 0.0037437909129926484 
0.045000000000000775 0.003741362111810165 
0.04505000000000078 0.0037389240318707537 
0.04510000000000078 0.0037364766530124187 
0.04515000000000078 0.0037340199551305366 
0.04520000000000078 0.0037315539181788345 
0.04525000000000078 0.003729078522170341 
0.045300000000000784 0.00372659374717839 
0.045350000000000786 0.0037240995733375834 
0.04540000000000079 0.003721595980844781 
0.04545000000000079 0.003719082949960097 
0.04550000000000079 0.0037165604610078914 
0.04555000000000079 0.0037140284943777795 
0.04560000000000079 0.003711487030525637 
0.045650000000000794 0.0037089360499746094 
0.045700000000000796 0.0037063755333161283 
0.0457500000000008 0.003703805461210938 
0.0458000000000008 0.003701225814390132 
0.0458500000000008 0.0036986365736561694 
0.0459000000000008 0.0036960377198839165 
0.0459500000000008 0.003693429234021698 
0.046000000000000804 0.0036908110970923433 
0.046050000000000806 0.0036881832901942313 
0.04610000000000081 0.003685545794502359 
0.04615000000000081 0.003682898591269389 
0.04620000000000081 0.0036802416618267396 
0.04625000000000081 0.0036775749875856373 
0.04630000000000081 0.0036748985500381966 
0.046350000000000814 0.0036722123307585215 
0.046400000000000816 0.0036695163114037633 
0.04645000000000082 0.003666810473715241 
0.04650000000000082 0.0036640947995195136 
0.04655000000000082 0.003661369270729503 
0.04660000000000082 0.0036586338693455757 
0.04665000000000082 0.003655888577456681 
0.046700000000000824 0.0036531333772414493 
0.046750000000000826 0.003650368250969312 
0.04680000000000083 0.003647593181001633 
0.04685000000000083 0.003644808149792835 
0.04690000000000083 0.0036420131398915284 
0.04695000000000083 0.003639208133941666 
0.04700000000000083 0.0036363931146836657 
0.047050000000000834 0.0036335680649555654 
0.047100000000000836 0.00363073296769418 
0.04715000000000084 0.0036278878059362463 
0.04720000000000084 0.0036250325628195967 
0.04725000000000084 0.003622167221584317 
0.04730000000000084 0.003619291765573908 
0.04735000000000084 0.0036164061782364755 
0.047400000000000844 0.0036135104431258918 
0.047450000000000846 0.0036106045439029816 
0.04750000000000085 0.0036076884643367105 
0.04755000000000085 0.0036047621883053774 
0.04760000000000085 0.0036018256997977964 
0.04765000000000085 0.003598878982914513 
0.04770000000000085 0.0035959220218689802 
0.047750000000000854 0.00359295480098879 
0.047800000000000856 0.003589977304716862 
0.04785000000000086 0.0035869895176126707 
0.04790000000000086 0.0035839914243534555 
0.04795000000000086 0.0035809830097354427 
0.04800000000000086 0.0035779642586750656 
0.04805000000000086 0.0035749351562102015 
0.048100000000000864 0.0035718956875013938 
0.048150000000000866 0.003568845837833093 
0.04820000000000087 0.0035657855926148905 
0.04825000000000087 0.0035627149373827615 
0.04830000000000087 0.0035596338578003173 
0.04835000000000087 0.003556542339660036 
0.04840000000000087 0.0035534403688845377 
0.048450000000000874 0.00355032793152782 
0.048500000000000876 0.0035472050137765193 
0.04855000000000088 0.0035440716019511814 
0.04860000000000088 0.0035409276825075177 
0.04865000000000088 0.003537773242037676 
0.04870000000000088 0.0035346082672715004 
0.04875000000000088 0.003531432745077816 
0.048800000000000884 0.003528246662465704 
0.048850000000000886 0.0035250500065857676 
0.04890000000000089 0.003521842764731426 
0.04895000000000089 0.0035186249243401952 
0.04900000000000089 0.0035153964729949614 
0.04905000000000089 0.003512157398425287 
0.04910000000000089 0.0035089076885086922 
0.049150000000000894 0.003505647331271947 
0.049200000000000896 0.003502376314892371 
0.0492500000000009 0.0034990946276991274 
0.0493000000000009 0.0034958022581745266 
0.0493500000000009 0.0034924991949553167 
0.0494000000000009 0.003489185426834005 
0.0494500000000009 0.0034858609427601437 
0.049500000000000904 0.0034825257318416574 
0.049550000000000906 0.0034791797833461334 
0.04960000000000091 0.003475823086702142 
0.04965000000000091 0.003472455631500554 
0.04970000000000091 0.0034690774074958323 
0.04975000000000091 0.003465688404607379 
0.04980000000000091 0.0034622886129208304 
0.049850000000000914 0.0034588780226893706 
0.049900000000000916 0.003455456624335067 
0.04995000000000092 0.0034520244084501857 
0.05000000000000092 0.0034485813657985052 


