-0.05 -6.081028357371622e-4 
-0.049 -5.953274133810357e-4 
-0.048 -5.812557015046874e-4 
-0.047 -5.659094638941312e-4 
-0.046 -5.493216760542958e-4 
-0.045 -5.31536910262582e-4 
-0.044 -5.126115575845446e-4 
-0.043 -4.926138669058034e-4 
-0.041999999999999996 -4.716237845324015e-4 
-0.040999999999999995 -4.4973258242189467e-4 
-0.039999999999999994 -4.2704226852806836e-4 
-0.03899999999999999 -4.036647789054696e-4 
-0.03799999999999999 -3.797209578949699e-4 
-0.03699999999999999 -3.55339339613657e-4 
-0.03599999999999999 -3.3065475077795933e-4 
-0.03499999999999999 -3.058067612553953e-4 
-0.03399999999999999 -2.809380143293656e-4 
-0.03299999999999999 -2.5619247316332214e-4 
-0.03199999999999999 -2.317136231085583e-4 
-0.030999999999999986 -2.0764267112989037e-4 
-0.029999999999999985 -1.8411678362995317e-4 
-0.028999999999999984 -1.61267402336121e-4 
-0.027999999999999983 -1.3921867477073612e-4 
-0.026999999999999982 -1.1808603134004313e-4 
-0.02599999999999998 -9.797493550784218e-5 
-0.02499999999999998 -7.897982717683474e-5 
-0.02399999999999998 -6.118327262331121e-5 
-0.02299999999999998 -4.465532746278254e-5 
-0.021999999999999978 -2.9453112489956993e-5 
-0.020999999999999977 -1.5620596121886042e-5 
-0.019999999999999976 -3.1885718101865716e-6 
-0.018999999999999975 7.825185653983259e-6 
-0.017999999999999974 1.7415604437444525e-5 
-0.016999999999999973 2.558986241799359e-5 
-0.015999999999999973 3.236681956278693e-5 
-0.014999999999999972 3.777635944742273e-5 
-0.01399999999999997 4.1858662911759765e-5 
-0.01299999999999997 4.466343559667275e-5 
-0.011999999999999969 4.6249109267526177e-5 
-0.010999999999999968 4.66820345543432e-5 
-0.009999999999999967 4.603568016936583e-5 
-0.008999999999999966 4.4389850931918195e-5 
-0.007999999999999965 4.1829934153915296e-5 
-0.0069999999999999655 3.8446181213897015e-5 
-0.005999999999999965 3.433302855068918e-5 
-0.004999999999999965 2.9588459898462183e-5 
-0.003999999999999965 2.431340940500238e-5 
-0.0029999999999999654 1.8611203351753715e-5 
-0.0019999999999999653 1.2587036543401733e-5 
-9.999999999999653e-4 6.34747806330728e-6 
3.469446951953614e-17 -3.0922819860279563e-19 
0.0010000000000000347 -6.347478063307714e-6 
0.0020000000000000347 -1.258703654340229e-5 
0.0030000000000000348 -1.8611203351754027e-5 
0.004000000000000035 -2.4313409405002815e-5 
0.005000000000000035 -2.9588459898462556e-5 
0.006000000000000035 -3.433302855068918e-5 
0.007000000000000035 -3.844618121389714e-5 
0.008000000000000035 -4.182993415391567e-5 
0.009000000000000036 -4.438985093191844e-5 
0.010000000000000037 -4.6035680169366016e-5 
0.011000000000000038 -4.668203455434356e-5 
0.012000000000000038 -4.624910926752624e-5 
0.01300000000000004 -4.466343559667287e-5 
0.01400000000000004 -4.1858662911759514e-5 
0.015000000000000041 -3.777635944742218e-5 
0.016000000000000042 -3.236681956278643e-5 
0.017000000000000043 -2.558986241799328e-5 
0.018000000000000044 -1.741560443744403e-5 
0.019000000000000045 -7.825185653982949e-6 
0.020000000000000046 3.188571810187499e-6 
0.021000000000000046 1.5620596121887218e-5 
0.022000000000000047 2.9453112489957982e-5 
0.023000000000000048 4.465532746278366e-5 
0.02400000000000005 6.118327262331252e-5 
0.02500000000000005 7.897982717683616e-5 
0.02600000000000005 9.79749355078436e-5 
0.027000000000000052 1.1808603134004446e-4 
0.028000000000000053 1.392186747707373e-4 
0.029000000000000054 1.612674023361226e-4 
0.030000000000000054 1.8411678362995488e-4 
0.031000000000000055 2.0764267112989234e-4 
0.032000000000000056 2.317136231085601e-4 
0.03300000000000006 2.561924731633241e-4 
0.03400000000000006 2.809380143293673e-4 
0.03500000000000006 3.0580676125539693e-4 
0.03600000000000006 3.3065475077796096e-4 
0.03700000000000006 3.553393396136588e-4 
0.03800000000000006 3.797209578949717e-4 
0.03900000000000006 4.036647789054713e-4 
0.04000000000000006 4.2704226852807e-4 
0.041000000000000064 4.497325824218962e-4 
0.042000000000000065 4.71623784532403e-4 
0.043000000000000066 4.926138669058048e-4 
0.04400000000000007 5.12611557584546e-4 
0.04500000000000007 5.315369102625833e-4 
0.04600000000000007 5.493216760542969e-4 
0.04700000000000007 5.659094638941323e-4 
0.04800000000000007 5.812557015046888e-4 
0.04900000000000007 5.953274133810366e-4 
0.05000000000000007 6.081028357371633e-4 
0.05100000000000007 6.195708908098841e-4 
0.052000000000000074 6.297305443379214e-4 
0.053000000000000075 6.385900704995481e-4 
0.054000000000000076 6.46166248209117e-4 
0.05500000000000008 6.524835115739411e-4 
0.05600000000000008 6.575730756450515e-4 
0.05700000000000008 6.614720565078456e-4 
0.05800000000000008 6.642226023954465e-4 
0.05900000000000008 6.658710500000774e-4 
0.06000000000000008 6.664671176203452e-4 
0.06100000000000008 6.660631443097634e-4 
0.06200000000000008 6.64713381858508e-4 
0.06300000000000008 6.62473344300558e-4 
0.06400000000000008 6.593992177280478e-4 
0.06500000000000009 6.555473315334951e-4 
0.06600000000000009 6.509736907947307e-4 
0.06700000000000009 6.45733568362049e-4 
0.06800000000000009 6.398811542892708e-4 
0.06900000000000009 6.334692595512295e-4 
0.07000000000000009 6.265490704870454e-4 
0.07100000000000009 6.191699500769952e-4 
0.07200000000000009 6.113792819757996e-4 
0.07300000000000009 6.032223531624261e-4 
0.0740000000000001 5.947422711030232e-4 
0.0750000000000001 5.859799114384123e-4 
0.0760000000000001 5.769738923818175e-4 
0.0770000000000001 5.677605722298948e-4 
0.0780000000000001 5.583740666365507e-4 
0.0790000000000001 5.488462825628616e-4 
0.0800000000000001 5.392069660879956e-4 
0.0810000000000001 5.29483761537748e-4 
0.0820000000000001 5.197022796532083e-4 
0.0830000000000001 5.098861727776555e-4 
0.0840000000000001 5.000572152818947e-4 
0.0850000000000001 4.902353876746594e-4 
0.0860000000000001 4.8043896305418894e-4 
0.0870000000000001 4.7068459474897763e-4 
0.0880000000000001 4.6098740416994707e-4 
0.0890000000000001 4.513610680532511e-4 
0.09000000000000011 4.418179044132345e-4 
0.09100000000000011 4.3236895664958814e-4 
0.09200000000000011 4.2302407536249644e-4 
0.09300000000000011 4.1379199752564916e-4 
0.09400000000000011 4.0468042275049974e-4 
0.09500000000000011 3.9569608644726044e-4 
0.09600000000000011 3.8684482974989847e-4 
0.09700000000000011 3.7813166612495226e-4 
0.09800000000000011 3.695608446282661e-4 
0.09900000000000012 3.611359098107569e-4 
0.10000000000000012 3.5285975830487806e-4 
0.10100000000000012 3.4473469214840177e-4 
0.10200000000000012 3.3676246892216054e-4 
0.10300000000000012 3.2894434879418674e-4 
0.10400000000000012 3.212811385748158e-4 
0.10500000000000012 3.137732328963137e-4 
0.10600000000000012 3.064206526369305e-4 
0.10700000000000012 2.992230807133518e-4 
0.10800000000000012 2.9217989536772673e-4 
0.10900000000000012 2.85290201076061e-4 
0.11000000000000013 2.785528572040938e-4 
0.11100000000000013 2.719665045350546e-4 
0.11200000000000013 2.655295897911138e-4 
0.11300000000000013 2.5924038826710574e-4 
0.11400000000000013 2.530970246913351e-4 
0.11500000000000013 2.470974924241397e-4 
0.11600000000000013 2.4123967110045917e-4 
0.11700000000000013 2.3552134281804444e-4 
0.11800000000000013 2.299402069682421e-4 
0.11900000000000013 2.2449389380152556e-4 
0.12000000000000013 2.1917997681519376e-4 
0.12100000000000014 2.139959840460028e-4 
0.12200000000000014 2.0893940834568203e-4 
0.12300000000000014 2.0400771671347888e-4 
0.12400000000000014 1.9919835875416804e-4 
0.12500000000000014 1.9450877432744242e-4 
0.12600000000000014 1.899364004492102e-4 
0.12700000000000014 1.8547867750212755e-4 
0.12800000000000014 1.811330548088078e-4 
0.12900000000000014 1.7689699561764804e-4 
0.13000000000000014 1.7276798154788084e-4 
0.13100000000000014 1.6874351653728303e-4 
0.13200000000000014 1.6482113033299063e-4 
0.13300000000000015 1.6099838156303657e-4 
0.13400000000000015 1.5727286042357415e-4 
0.13500000000000015 1.5364219101424503e-4 
0.13600000000000015 1.50104033351799e-4 
0.13700000000000015 1.4665608508987633e-4 
0.13800000000000015 1.4329608297079384e-4 
0.13900000000000015 1.4002180403324904e-4 
0.14000000000000015 1.368310665980521e-4 
0.14100000000000015 1.337217310523123e-4 
0.14200000000000015 1.3069170045093486e-4 
0.14300000000000015 1.2773892095281907e-4 
0.14400000000000016 1.2486138210779184e-4 
0.14500000000000016 1.2205711700903605e-4 
0.14600000000000016 1.1932420232460198e-4 
0.14700000000000016 1.1666075822049237e-4 
0.14800000000000016 1.140649481867989e-4 
0.14900000000000016 1.1153497877742192e-4 
0.15000000000000016 1.0906909927303959e-4 
0.15100000000000016 1.0666560127617582e-4 
0.15200000000000016 1.0432281824647376e-4 
0.15300000000000016 1.0203912498359035e-4 
0.15400000000000016 9.981293706447762e-5 
0.15500000000000017 9.764271024123969e-5 
0.15600000000000017 9.552693980519422e-5 
0.15700000000000017 9.346415992227384e-5 
0.15800000000000017 9.145294294442943e-5 
0.15900000000000017 8.94918987012756e-5 
0.16000000000000017 8.757967377581942e-5 
0.16100000000000017 8.571495076775175e-5 
0.16200000000000017 8.389644754744494e-5 
0.16300000000000017 8.212291650349516e-5 
0.16400000000000017 8.03931437863627e-5 
0.16500000000000017 7.870594855040422e-5 
0.16600000000000018 7.706018219635533e-5 
0.16700000000000018 7.545472761609941e-5 
0.16800000000000018 7.388849844136222e-5 
0.16900000000000018 7.236043829778535e-5 
0.17000000000000018 7.08695200656667e-5 
0.17100000000000018 6.941474514850044e-5 
0.17200000000000018 6.799514275030964e-5 
0.17300000000000018 6.66097691626392e-5 
0.17400000000000018 6.525770706195508e-5 
0.17500000000000018 6.393806481809564e-5 
0.17600000000000018 6.264997581432102e-5 
0.17700000000000018 6.139259777941767e-5 
0.17800000000000019 6.016511213224056e-5 
0.1790000000000002 5.896672333899742e-5 
0.1800000000000002 5.779665828351881e-5 
0.1810000000000002 5.665416565069754e-5 
0.1820000000000002 5.553851532322558e-5 
0.1830000000000002 5.4448997791713644e-5 
0.1840000000000002 5.338492357823048e-5 
0.1850000000000002 5.234562267326456e-5 
0.1860000000000002 5.1330443986074175e-5 
0.1870000000000002 5.0338754808362364e-5 
0.1880000000000002 4.936994029118579e-5 
0.1890000000000002 4.842340293500628e-5 
0.1900000000000002 4.749856209258193e-5 
0.1910000000000002 4.6594853485045396e-5 
0.1920000000000002 4.571172873016084e-5 
0.1930000000000002 4.484865488341257e-5 
0.1940000000000002 4.400511399122685e-5 
0.1950000000000002 4.318060265628585e-5 
0.1960000000000002 4.237463161469632e-5 
0.1970000000000002 4.1586725324788395e-5 
0.1980000000000002 4.0816421567318025e-5 
0.1990000000000002 4.0063271056838656e-5 
0.2000000000000002 3.932683706400704e-5 


