4560	56
4560	56
4600	57
4600	56
4520	56
4520	58
4440	56
4440	55
4360	56
4320	56
4320	56
4240	56
4280	56
4200	56
4200	55
4160	56
4080	55
4000	56
4000	56
3920	56
3960	56
3920	54
3840	54
3840	56
3800	54
3760	55
3680	54
3600	54
3840	56
3600	55
3600	54
3480	56
3520	54
3480	54
3320	54
3320	54
3280	55
3280	54
3240	54
3160	54
3200	53
3160	53
3120	52
3040	55
3040	53
3000	55
2960	54
2880	52
2840	53
2800	54
2840	52
2720	54
2720	52
2720	51
2680	51
2560	52
2560	51
2560	52
2480	51
2520	50
2400	51
2400	51
2240	51
2320	51
2240	50
2160	52
2080	50
2160	50
2040	50
2040	49
2040	50
2000	48
1760	48
1960	50
1840	48
1840	49
1840	48
1840	48
1720	49
1680	49
1640	47
1600	47
1520	47
1520	46
1520	48
1480	47
1360	47
1360	47
1360	46
1360	48
1240	46
1280	46
1200	44
1200	46
1160	45
1080	43
1040	44
1040	45
1040	44
960	43
1040	44
840	42
800	42
840	43
800	42
760	44
720	43
720	42
680	40
680	43
640	42
560	42
560	42
560	42
560	42
480	42
480	41
480	39
360	39
400	40
360	39
320	38
320	39
240	38
240	38
160	38
120	38
200	38
120	38
80	37
80	38
80	38
40	36
80	35
40	35
-80	35
0	35
-80	35
-80	33
-80	34
-160	35
-80	35
-160	34
-200	34
-160	32
-200	32
-240	33
-240	32
-200	31
-280	32
-280	32
-320	31
-320	31
-320	31
-360	30
-360	30
-360	31
-160	31
-360	30
-480	30
-320	28
-360	27
-400	29
-400	28
-400	27
-440	27
-400	26
-560	25
-520	26
-560	26
-480	23
-400	22
-520	23
-480	24
-640	22
-560	23
-480	23
-520	22
-640	23
-520	23
-520	22
-560	21
-600	20
-480	20
-520	20
-640	18
-480	20
-560	20
-640	19
-560	18
-560	19
-680	18
-520	18
-520	16
-680	18
-680	18
-560	16
-600	15
-680	16
-800	14
-560	14
-640	16
-640	14
-680	14
-640	14
-640	12
-680	15
-640	14
-720	12
-560	12
-640	11
-800	11
-680	11
-640	12
-680	10
-720	10
-640	9
-680	8
-720	8
-680	10
-720	10
-720	6
-640	7
-680	7
-720	7
-800	6
-680	7
-720	6
-760	6
-720	6
-720	5
-720	3
-800	3
-720	3
-800	3
-800	4
-840	3
-720	2
-800	0
-680	2
-720	1
-1600	-6
-640	2
-680	0
-840	0
-840	-1
-880	-4
-720	-2
-840	-2
-840	-2
-760	-2
-880	-4
-880	-2
-840	-4
-720	-3
-840	-4
-800	-4
-800	-6
-880	-5
-880	-6
-800	-7
-880	-8
-880	-8
-880	-8
-880	-4
-840	-8
-880	-8
-800	-9
-880	-9
-960	-9
-960	-10
-880	-10
-880	-12
-840	-8
-880	-9
-960	-10
-960	-12
-920	-12
-960	-12
-960	-13
-1000	-14
-880	-13
-560	-10
-880	-14
-880	-14
-1040	-14
-1000	-16
-1280	-18
-1040	-16
-1160	-16
-1040	-17
-1000	-16
-1120	-17
-1120	-17
-1040	-17
-1040	-18
-1120	-20
-1120	-20
-1080	-18
-1200	-20
-1120	-19
-1120	-18
-1120	-21
-1200	-20
-1200	-20
-1200	-21
-1200	-22
-1240	-22
-1080	-22
-1280	-21
-1280	-22
-1200	-23
-1280	-22
-1320	-24
-1280	-25
-1240	-24
-1320	-26
-1280	-25
-1280	-26
-1400	-27
-1400	-26
-1280	-28
-1480	-28
-1400	-29
-1400	-29
-1360	-29
-1520	-30
-1440	-28
-1400	-29
-1440	-30
-1520	-33
-1480	-30
-1440	-30
-1520	-31
-1520	-32
-1480	-32
-1600	-32
-1640	-34
-1600	-33
-1640	-34
-1680	-33
-1640	-34
-1560	-33
-1760	-35
-1720	-35
-1640	-36
-1760	-36
-1760	-36
-1760	-36
-1680	-36
-1840	-35
-1680	-36
-1800	-38
-1880	-38
-1920	-38
-1840	-40
-1920	-38
-1920	-38
-1840	-39
-1920	-39
-2000	-40
-1960	-39
-1920	-40
-2080	-40
-2080	-41
-2080	-41
-2080	-41
-2080	-40
-2120	-42
-2160	-42
-2160	-40
-2280	-42
-2240	-42
-2240	-41
-2240	-42
-2280	-42
-2320	-44
-2400	-44
-2440	-44
-2400	-44
-2400	-44
-2480	-46
-2480	-44
-2480	-44
-2480	-45
-2640	-45
-2600	-46
-2560	-45
-2640	-46
-2680	-45
-2640	-46
-2800	-46
-2760	-46
-2800	-48
-2920	-47
-2880	-47
-2800	-46
-2960	-47
-2960	-46
-3000	-48
-2960	-48
-3120	-46
-3040	-49
-2960	-48
-3120	-49
-3200	-49
-3200	-50
-3200	-48
-3320	-50
-3280	-49
-3280	-48
-3360	-49
-3440	-50
-3360	-50
-3520	-52
-3520	-50
-3440	-52
-3520	-50
-3520	-52
-3600	-53
-3600	-52
-3600	-50
-3680	-52
-3760	-52
-3680	-52
-3760	-52
-3880	-53
-3840	-53
-3840	-53
-3920	-52
-3920	-52
-3880	-52
-4000	-54
-4080	-54
-4000	-53
-4000	-54
-4040	-53
-4160	-54
-4160	-54
-4200	-54
-4320	-54
-4320	-54
-4240	-54
-4320	-54
-4320	-54
-4360	-55
-4280	-56
-4400	-54
-4400	-53
-4320	-54
-4480	-54
-4520	-54
-4520	-55
-4400	-54
-4560	-55
-4520	-55
-4480	-56
-4560	-56
-4640	-54
-4560	-55
-4560	-55
-4680	-56
-4600	-54
-4640	-57
-4720	-56
-4800	-55
-4600	-56
-4720	-56
-4720	-56
-4720	-56
-4720	-54
-4720	-56
-4800	-54
-4720	-57
-4720	-57
-4800	-56
-4800	-56
-4800	-56
-4800	-56
-4800	-57
-4800	-57
-4800	-57
-4880	-56
-4880	-57
-4760	-56
-4800	-55
-4760	-57
-4800	-56
-4720	-54
-4760	-57
-4720	-57
-4760	-57
-4760	-58
-4720	-57
-4640	-57
-4680	-56
-4680	-56
-4640	-56
-4640	-56
-4600	-57
-4600	-57
-4600	-57
-4520	-56
-4560	-56
-4480	-56
-4480	-56
-4400	-56
-4440	-56
-4320	-56
-4320	-56
-4320	-54
-4240	-57
-4200	-57
-4200	-56
-4160	-56
-4080	-54
-4080	-56
-4000	-55
-4080	-56
-3920	-54
-3920	-54
-3880	-55
-3920	-55
-3800	-54
-3800	-54
-3760	-55
-3720	-54
-3600	-54
-3680	-54
-3640	-54
-3520	-54
-3440	-54
-3520	-54
-3400	-53
-3400	-53
-3320	-54
-3360	-54
-3240	-54
-3280	-53
-3200	-54
-3120	-53
-3120	-54
-3120	-54
-3080	-53
-3000	-53
-2960	-52
-3000	-54
-2840	-52
-2840	-52
-2800	-55
-2800	-52
-2800	-53
-2680	-52
-2640	-53
-2600	-52
-2560	-50
-2560	-50
-2440	-52
-2520	-50
-2480	-50
-2400	-52
-2240	-50
-2240	-50
-2320	-50
-2280	-50
-2120	-49
-2240	-50
-2080	-50
-2040	-50
-2040	-50
-2000	-50
-1960	-50
-1920	-51
-1840	-50
-1880	-49
-1840	-49
-1840	-49
-1760	-47
-1760	-48
-1680	-49
-1600	-48
-1560	-49
-1560	-48
-1480	-48
-1520	-47
-1360	-48
-1400	-48
-1360	-47
-1360	-46
-1360	-47
-1280	-46
-1280	-46
-1120	-46
-1200	-46
-1040	-45
-960	-45
-1080	-45
-1000	-45
-960	-44
-1000	-43
-920	-42
-960	-44
-800	-42
-800	-42
-800	-42
-760	-43
-720	-42
-640	-42
-640	-42
-640	-42
-640	-42
-560	-41
-520	-41
-480	-41
-480	-40
-480	-40
-440	-40
-400	-41
-360	-40
-360	-39
-320	-40
-240	-38
-240	-38
-240	-38
-160	-38
-160	-37
-200	-37
-160	-37
-120	-36
-80	-37
-40	-36
-40	-36
0	-36
0	-36
-40	-36
40	-34
80	-34
80	-35
80	-34
240	-35
160	-33
160	-33
160	-34
240	-34
280	-32
240	-33
240	-32
240	-33
320	-31
320	-31
320	-31
360	-31
400	-31
240	-30
360	-29
400	-29
400	-29
360	-30
400	-28
440	-28
400	-28
440	-28
480	-28
440	-26
360	-27
480	-26
480	-26
440	-26
480	-26
400	-26
480	-26
520	-24
400	-23
440	-22
480	-24
480	-22
560	-25
520	-24
480	-22
600	-21
480	-21
480	-20
600	-21
720	-20
560	-21
560	-20
640	-18
560	-20
600	-18
560	-18
600	-18
560	-17
600	-16
640	-16
680	-17
600	-16
640	-16
560	-17
600	-15
640	-16
640	-16
560	-14
640	-14
720	-13
720	-14
560	-14
680	-14
640	-12
680	-13
720	-12
640	-12
640	-11
720	-11
680	-12
720	-11
680	-10
640	-8
40	-17
440	-10
760	-8
680	-8
600	-9
480	-10
680	-9
760	-6
760	-8
720	-7
720	-6
680	-5
680	-6
720	-4
720	-4
760	-4
800	-2
680	-4
760	-2
840	-2
720	-1
640	-2
800	0
800	0
760	-2
880	-1
800	-1
760	2
800	0
800	0
800	2
720	2
840	2
800	2
760	3
880	2
840	4
720	4
800	4
1600	11
960	6
800	6
880	6
960	7
1000	8
760	7
960	7
760	8
880	8
880	10
880	8
960	9
920	9
840	10
920	11
1000	10
960	10
960	10
1040	12
960	11
880	12
920	12
1040	12
960	14
920	14
1040	13
1040	14
1040	14
1040	15
1040	16
960	16
960	16
1040	16
1080	16
1120	16
1080	18
1120	18
1040	18
1080	17
1040	17
1040	20
1200	19
1200	21
1240	21
1160	20
1160	19
1120	22
1120	22
1240	22
1280	22
1200	24
1240	24
1200	23
1160	26
1200	24
1280	26
1120	25
1360	24
1280	24
1360	26
1280	27
1360	27
1360	28
1400	27
1440	26
1520	28
1440	28
1400	29
1480	28
1440	27
1440	31
1520	31
1400	30
1480	31
1520	30
1600	32
1480	32
1520	32
1600	32
1520	34
1640	33
1640	33
1600	34
1600	35
1640	34
1600	34
1680	34
1720	36
1680	35
1720	34
1760	38
1880	34
1760	36
1680	36
1800	38
1760	37
1920	38
1920	37
1920	38
1920	39
1920	38
1920	39
2000	39
2000	38
2000	39
2040	39
2000	40
2160	42
2040	42
2080	41
2200	42
2160	42
2200	42
2200	42
2240	43
2280	42
2240	43
2320	42
2360	43
2400	43
2400	43
2400	44
2480	44
2480	44
2480	45
2480	45
2560	44
2560	44
2680	46
2600	46
2720	45
2640	47
2680	45
2800	46
2800	46
2760	46
2880	48
2800	46
2800	48
2880	46
3040	47
2920	48
3040	48
3080	49
3120	49
3160	48
3160	50
3200	48
3160	49
3160	50
3320	50
3320	51
3280	49
3360	51
3480	51
3360	50
3520	50
3520	49
3520	52
3560	50
3520	52
3640	51
3600	50
3680	51
3760	51
3680	53
3680	52
3840	52
3760	52
3800	53
3920	52
3920	52
3920	52
3920	52
4080	54
3960	54
3920	54
4120	54
4160	54
4080	54
4160	52
4320	55
4280	54
4120	53
4240	54
4440	54
4200	54
4400	54
4480	54
4400	54
4320	54
4440	55
4480	55
4400	56
4480	55
4600	56
4560	54
4520	56
4600	56
4640	56
4600	56
4560	56
4760	55
4640	55
4680	56
4720	56
4720	56
4720	56
4800	56
4760	56
4800	55
4800	55
4800	55
4840	55
4800	58
4880	56
4800	56
4760	56
4800	54
4800	55
4880	55
4800	57
4840	56
4880	56
4840	57
4800	56
4840	56
4800	56
4840	56
4760	56
4880	58
4800	56
4800	56
4800	56
4800	58
4720	58
4720	56
4720	56
4680	56
4640	58
4640	55
4640	56
4600	56
4600	58
4480	56
4520	56
4480	56
4440	55
4440	56
4440	56
4400	56
4400	55
4320	54
4280	55
4240	55
4200	55
4160	56
4160	56
4160	55
4080	54
4000	55
4000	55
3960	56
3920	54
3840	55
3800	54
3760	54
3800	56
3760	55
3720	55
3720	54
3640	55
3600	54
3600	54
3600	55
3440	54
3480	55
3480	54
3360	54
3280	54
3280	54
3240	54
3200	54
3120	54
3120	54
3040	54
3040	52
3000	52
2960	54
2880	52
2880	52
2880	51
2800	52
2800	52
2720	52
2720	52
2680	52
2600	52
2640	52
2480	51
2560	52
2480	51
2400	51
2400	50
2400	51
2320	52
2280	51
2280	50
2200	50
2160	50
2040	49
2080	51
2040	50
1760	48
1920	48
1960	50
1920	48
1920	49
1840	49
1760	48
1760	48
1760	49
1680	48
1680	47
1680	47
1520	46
1560	47
1600	47
1520	48
1400	48
1360	46
1360	47
1280	45
1280	45
1200	46
1160	45
1120	44
1120	44
1160	44
1040	45
1000	46
1000	44
960	44
880	44
880	46
840	44
760	43
800	42
800	43
720	42
680	43
600	42
640	42
560	42
600	40
520	40
480	40
520	39
480	40
400	40
400	41
360	39
360	41
320	38
240	39
240	39
320	38
200	38
160	38
160	36
200	36
120	36
80	38
80	36
0	35
40	36
0	36
0	36
-40	36
-80	36
-80	34
-80	35
-120	34
-160	33
-120	33
-160	33
-200	33
-160	34
-240	34
-240	31
-280	33
-240	34
-200	32
-240	32
-320	32
-240	30
-280	31
-240	30
-320	31
-320	30
-320	29
-360	30
-400	28
-320	28
-400	28
-360	28
-400	28
-400	28
-520	25
-360	27
-400	26
-480	24
-480	24
-480	25
-520	25
-520	26
-360	25
-520	23
-560	23
-400	23
-520	22
-640	22
-560	24
-520	22
-560	22
-640	22
-520	20
-520	20
-640	20
-520	19
-640	18
-560	19
-320	20
-560	18
-680	18
-560	18
-560	18
-560	16
-600	18
-600	15
-560	17
-640	16
-640	16
-600	14
-720	14
-720	14
-640	14
-640	14
-640	14
-640	14
-680	14
-680	14
-560	12
-640	12
-720	12
-720	10
-720	11
-720	10
-720	10
-680	10
-640	10
-720	10
-720	6
-720	9
-720	8
-640	7
-680	6
-840	6
-680	6
-640	4
-720	6
-760	6
-400	6
-640	4
-760	4
-720	4
-680	4
-1040	0
-840	2
-760	2
-720	3
-720	2
-720	2
-800	1
-880	0
-680	0
-720	-1
-800	0
-760	-2
-760	-1
-800	0
-800	-3
-720	-2
-800	-2
-880	-3
-840	-3
-800	-4
-880	-2
-760	-3
-760	-4
-840	-4
-880	-4
-760	-7
-800	-6
-880	-5
-1000	-6
-880	-6
-800	-7
-880	-6
-880	-8
-880	-9
-840	-8
-1120	-9
-960	-10
-960	-10
-920	-10
-720	-10
-960	-10
-1000	-11
-880	-12
-920	-12
-960	-13
-960	-13
-920	-12
-920	-13
-1040	-14
-960	-14
-1040	-16
-1000	-16
-1040	-14
-1000	-16
-1040	-17
-1000	-17
-1040	-16
-960	-16
-1160	-16
-1000	-17
-1000	-18
-1160	-18
-1240	-18
-1040	-18
-1120	-19
-1120	-19
-1160	-21
-1120	-20
-1200	-20
-1280	-21
-1080	-22
-1200	-22
-1120	-22
-1240	-21
-1280	-22
-1320	-22
-1240	-25
-1280	-24
-1280	-26
-1360	-23
-1280	-23
-1320	-26
-1280	-25
-1320	-25
-1360	-26
-1400	-26
-1400	-26
-1320	-27
-1400	-28
-1440	-28
-1440	-29
-1440	-28
-1520	-29
-1360	-29
-1440	-29
-1440	-30
-1520	-29
-1480	-30
-1520	-29
-1520	-31
-1440	-32
-1480	-32
-1680	-33
-1600	-32
-1560	-32
-1640	-32
-1600	-34
-1600	-33
-1600	-33
-1760	-34
-1680	-34
-1600	-34
-1760	-35
-1760	-34
-1760	-36
-1760	-36
-1840	-36
-1800	-36
-1800	-36
-1920	-36
-1880	-35
-1920	-37
-2000	-38
-1920	-38
-1960	-39
-1920	-40
-2000	-38
-1920	-40
-1960	-40
-2040	-39
-2120	-41
-2080	-41
-2120	-41
-2160	-40
-2120	-41
-2120	-42
-2240	-41
-2160	-42
-2240	-42
-2320	-42
-2240	-42
-2320	-43
-2320	-43
-2440	-42
-2320	-43
-2320	-43
-2400	-44
-2560	-44
-2560	-46
-2480	-44
-2560	-44
-2560	-45
-2560	-45
-2640	-46
-2760	-45
-2680	-46
-2720	-46
-2800	-46
-2760	-47
-2720	-46
-2960	-48
-2840	-46
-2800	-48
-2960	-48
-2880	-47
-3000	-48
-3040	-48
-3120	-49
-3040	-49
-3080	-49
-3200	-50
-3120	-49
-3080	-48
-3240	-49
-3280	-50
-3200	-49
-3360	-50
-3360	-49
-3360	-50
-3320	-50
-3480	-50
-3480	-51
-3480	-50
-3520	-52
-3560	-50
-3600	-50
-3600	-50
-3640	-50
-3720	-52
-3840	-52
-3720	-52
-3840	-52
-3760	-52
-3760	-52
-3880	-52
-3920	-52
-3920	-53
-3920	-53
-4040	-54
-4080	-54
-4000	-54
-4000	-53
-4160	-54
-4160	-54
-4160	-52
-4160	-54
-4320	-54
-4280	-54
-4160	-55
-4400	-56
-4240	-54
-4320	-54
-4320	-54
-4440	-56
-4400	-56
-4400	-55
-4480	-54
-4520	-55
-4440	-55
-4480	-54
-4560	-56
-4520	-56
-4560	-55
-4600	-57
-4720	-57
-4560	-56
-4680	-56
-4680	-56
-4600	-56
-4680	-55
-4720	-57
-4640	-56
-4720	-56
-4720	-56
-4840	-56
-4840	-56
-4680	-56
-4800	-56
-4720	-56
-4800	-55
-4800	-56
-4800	-56
-4720	-57
-4800	-57
-4760	-56
-4880	-56
-4720	-57
-4720	-56
-4800	-54
-4760	-56
-4800	-56
-4840	-56
-4840	-57
-4800	-56
-4720	-56
-4840	-56
-4720	-56
-4840	-56
-4760	-57
-4720	-56
-4720	-57
-4720	-56
-4680	-58
-4640	-56
-4640	-56
-4640	-57
-4640	-56
-4560	-56
-4560	-57
-4480	-57
-4440	-56
-4440	-56
-4480	-56
-4360	-57
-4320	-55
-4320	-56
-4240	-56
-4280	-56
-4240	-56
-4240	-56
-4160	-56
-4200	-54
-4080	-55
-4080	-54
-4000	-55
-3960	-57
-4000	-55
-3920	-56
-3840	-55
-3840	-55
-3800	-54
-3720	-55
-3680	-53
-3680	-55
-3680	-54
-3600	-53
-3520	-53
-3520	-54
-3520	-54
-3400	-54
-3400	-54
-3360	-53
-3320	-53
-3320	-53
-3280	-52
-3200	-53
-3160	-54
-3120	-53
-3080	-53
-3040	-54
-3040	-54
-2960	-53
-2720	-53
-2840	-52
-2840	-54
-2760	-52
-2760	-54
-2760	-53
-2720	-52
-2720	-52
-2600	-52
-2640	-52
-2640	-52
-2520	-52
-2480	-50
-2440	-50
-2400	-51
-2320	-50
-2320	-50
-2240	-50
-2200	-50
-2240	-52
-2160	-50
-2120	-51
-2080	-51
-2080	-48
-2000	-50
-1920	-49
-1960	-48
-1960	-48
-1840	-48
-1760	-48
-1760	-48
-1720	-49
-1680	-48
-1640	-48
-1560	-50
-1600	-47
-1600	-48
-1520	-47
-1440	-46
-1280	-45
-1360	-46
-1400	-46
-1280	-47
-1280	-46
-1360	-46
-1120	-46
-1200	-45
-1240	-46
-1200	-46
-1040	-45
-1040	-45
-1040	-44
-1040	-44
-880	-44
-880	-44
-840	-44
-760	-44
-840	-44
-760	-42
-760	-44
-640	-42
-680	-42
-680	-42
-640	-42
-560	-42
-560	-42
-560	-42
-480	-40
-480	-42
-360	-41
-400	-40
-400	-39
-320	-40
-360	-41
-320	-39
-240	-38
-240	-40
-200	-40
-200	-40
-80	-36
-160	-36
-80	-36
-80	-38
-80	-36
40	-34
-80	-35
0	-36
-40	-34
120	-35
0	-34
80	-34
80	-34
120	-34
120	-35
200	-34
200	-33
240	-34
160	-33
160	-34
200	-32
240	-32
240	-32
200	-32
320	-31
280	-31
320	-31
320	-30
320	-29
320	-29
320	-28
400	-29
360	-28
440	-30
400	-28
400	-28
400	-28
480	-28
400	-26
440	-28
440	-27
440	-26
440	-26
400	-26
480	-24
600	-24
480	-26
400	-22
520	-26
480	-22
480	-22
640	-21
480	-22
520	-22
480	-21
480	-21
600	-21
560	-21
560	-20
560	-20
520	-20
640	-20
640	-18
480	-19
600	-19
560	-18
560	-16
640	-18
600	-17
640	-16
520	-16
560	-17
640	-16
640	-16
560	-16
720	-15
560	-15
640	-16
720	-14
600	-15
560	-14
720	-13
640	-13
640	-12
560	-14
680	-12
600	-10
720	-12
680	-10
720	-10
640	-10
720	-9
640	-9
640	-10
680	-8
760	-9
720	-9
680	-7
760	-5
720	-8
760	-8
720	-6
720	-4
680	-6
720	-5
920	-6
680	-4
760	-3
760	-2
760	-4
760	-2
760	-4
720	-4
720	-2
800	-2
800	0
800	-1
840	-1
800	-1
1080	6
760	2
880	0
800	2
720	1
800	2
920	3
880	3
840	4
800	3
800	4
720	4
800	4
960	6
880	6
880	5
960	7
840	7
960	8
960	8
760	7
920	8
880	10
920	7
960	10
960	10
840	11
920	11
880	9
960	11
920	11
960	11
960	11
960	12
880	13
1080	12
960	14
960	14
960	15
1280	16
1120	14
1040	15
1040	15
1000	16
800	15
1000	16
1120	17
1040	18
1000	17
1080	18
960	17
1200	18
1120	18
960	19
1200	18
1120	19
1120	20
1120	20
1160	22
1160	20
1160	20
1160	22
1320	22
1160	22
1280	24
1280	22
1200	22
1320	24
1200	24
1360	26
1320	26
1280	26
1440	27
1360	24
1360	26
1400	27
1360	28
1360	28
1440	29
1400	28
1440	28
1440	29
1440	30
1440	30
1320	31
1520	31
1440	31
1520	32
1680	31
1520	32
1520	32
1600	32
1520	32
1600	33
1560	32
1680	34
1600	32
1600	35
1600	32
1760	34
1680	35
1720	35
1720	36
1760	34
1840	35
1720	37
1760	36
1760	38
1840	36
1920	39
1880	38
1880	38
1840	37
1920	39
2000	39
2000	39
1920	39
2040	40
1920	40
2080	41
2080	39
2080	40
2000	40
2080	41
2240	42
2080	42
2320	42
2280	42
2240	42
2280	42
2400	43
2360	43
2400	43
2480	44
2360	46
2480	44
2520	44
2400	44
2520	45
2560	44
2600	45
2560	44
2720	45
2640	44
2640	46
2640	46
2880	47
2760	47
2840	47
2840	48
2880	48
2800	47
3000	47
2960	48
2960	48
3040	48
3120	50
3080	48
3200	49
3080	48
3080	48
3160	49
3280	50
3120	50
3280	50
3400	51
3280	50
3280	50
3520	50
3520	51
3360	51
3440	50
3640	51
3600	52
3560	52
3720	52
3680	52
3680	52
3680	52
3880	52
3760	52
3760	52
4000	52
3880	54
3840	50
4000	54
4080	52
3960	52
4040	54
4040	53
4160	53
4080	54
4160	54
4240	54
4200	54
4200	54
4240	55
4400	54
4320	55
4320	54
4400	56
4400	55
4400	55
4480	54
4440	55
4440	55
4520	55
4480	55
4560	55
4560	54
4640	55
4560	56
4560	54
4640	55
4720	56
4600	56
4640	56
4760	56
4720	56
4640	58
4840	56
4800	55
4640	54
4760	55
4800	56
4800	56
4800	55
4800	56
4800	55
4760	56
4800	56
4880	56
4800	56
4840	56
4800	56
4840	56
4880	55
4800	56
4840	56
4800	56
4840	56
4840	56
4840	56
4880	56
4760	56
4800	56
4800	56
4800	56
4760	56
4720	58
4720	56
4760	56
4640	55
4600	56
4560	56
4640	56
4600	56
4640	55
4520	56
4480	56
4480	56
4400	55
4440	56
4400	56
4360	55
4320	56
4320	54
4240	54
4280	55
4160	54
4120	56
4160	56
4080	54
3840	54
4000	54
3920	55
3840	55
3920	55
3920	55
3760	55
3760	55
3760	55
3760	55
3600	54
3600	54
3520	54
3520	54
3480	54
3520	55
3360	54
3360	54
3280	54
3320	53
3240	52
3200	54
3200	54
3120	52
3120	54
3040	54
3040	53
2960	52
2960	54
2960	52
2880	52
2800	52
2800	51
2760	52
2720	52
2600	52
2640	52
2640	52
2560	51
2560	52
2400	50
2520	51
2400	51
2400	51
2280	50
2320	52
2280	50
2240	50
2240	51
2120	50
2160	50
2080	48
2000	49
2000	50
1960	48
1880	48
1920	50
1880	50
1800	48
1840	48
1760	48
1720	50
1640	47
1600	49
1600	48
1520	47
1560	47
1520	45
1440	48
1440	47
1280	46
1360	47
1280	46
1280	45
1240	46
1120	45
1120	45
1120	44
1080	44
1120	46
1000	45
960	44
960	44
880	44
800	43
880	44
840	43
720	44
760	44
720	44
680	42
640	43
560	42
560	41
560	41
560	40
480	41
560	39
440	40
440	40
360	39
400	39
400	39
320	39
280	39
280	38
240	38
160	38
200	38
120	38
120	36
80	38
80	36
40	37
40	36
0	35
0	36
0	35
0	35
-40	34
-80	34
-80	34
-80	33
-160	32
-160	34
-160	34
-160	32
-200	34
-200	32
-240	32
-200	32
-320	31
-240	31
-280	31
-320	31
-360	30
-320	30
-360	30
-400	30
-320	29
-320	29
-280	28
-480	28
-320	27
-440	28
-400	28
-360	27
-480	28
-480	26
-400	26
-480	26
-520	25
-400	26
-480	25
-480	25
-480	24
-480	24
-520	24
-320	26
-560	22
-560	22
-560	22
-480	22
-560	22
-520	20
-560	20
-520	20
-560	20
-560	20
-640	20
-520	19
-520	18
-520	18
-680	18
-520	18
-520	18
-560	17
-480	18
-560	17
-560	15
-640	16
-560	15
-640	16
-640	15
-640	16
-600	15
-680	14
-640	14
-600	14
-680	14
-680	12
-560	12
-720	12
-720	11
-680	12
-640	11
-640	10
-680	10
-1360	4
-800	8
-800	10
-760	8
-640	8
-960	6
-720	7
-640	7
-800	7
-720	6
-640	6
-760	5
-760	6
-720	5
-720	5
-720	4
-720	4
-680	6
-840	3
-800	3
-720	2
-760	2
-720	3
-680	1
-720	1
-840	2
-800	0
-720	1
-840	0
-880	0
-800	-2
-720	0
-880	-2
-720	-3
-800	-2
-840	-4
-880	-2
-760	-4
-840	-2
-760	-1
-760	-3
-800	-6
-960	-5
-720	-6
-920	-8
-1040	-6
-960	-5
-800	-6
-800	-6
-880	-8
-840	-8
-880	-9
-880	-7
-960	-10
-880	-9
-960	-9
-840	-9
-880	-10
-920	-10
-1000	-12
-880	-12
-920	-10
-1040	-11
-960	-12
-920	-12
-960	-13
-1040	-14
-960	-13
-1000	-14
-1040	-14
-1080	-15
-1040	-16
-1120	-15
-1000	-14
-960	-16
-1080	-16
-1160	-16
-960	-18
-1080	-18
-560	-13
-1080	-17
-1040	-19
-1000	-19
-1080	-17
-1160	-20
-1120	-18
-1160	-20
-1200	-21
-1200	-21
-1160	-22
-1240	-21
-1200	-22
-1120	-22
-1360	-24
-1120	-24
-1240	-24
-1360	-25
-1320	-25
-1280	-26
-1320	-22
-1280	-26
-1280	-26
-1280	-26
-1360	-26
-1320	-26
-1360	-28
-1400	-28
-1360	-27
-1360	-28
-1400	-29
-1440	-29
-1360	-28
-1440	-30
-1440	-29
-1480	-30
-1480	-31
-1480	-32
-1520	-31
-1480	-30
-1480	-31
-1600	-32
-1600	-31
-1600	-33
-1600	-33
-1600	-33
-1600	-36
-1720	-34
-1760	-34
-1600	-35
-1680	-34
-1680	-34
-1800	-36
-1720	-37
-1760	-35
-1760	-38
-1680	-35
-1800	-36
-1920	-36
-1920	-36
-1840	-38
-2000	-38
-1840	-38
-1840	-38
-2000	-37
-2080	-40
-1920	-38
-1960	-40
-2040	-39
-2080	-40
-2000	-40
-2080	-42
-2160	-42
-2120	-40
-2120	-42
-2240	-42
-2240	-42
-2160	-42
-2240	-43
-2160	-42
-2320	-43
-2320	-42
-2440	-44
-2240	-44
-2400	-44
-2400	-45
-2400	-43
-2560	-45
-2560	-46
-2520	-44
-2560	-44
-2640	-44
-2560	-46
-2680	-46
-2640	-45
-2800	-45
-2760	-46
-2720	-48
-2800	-46
-2880	-48
-2720	-48
-2880	-48
-2960	-48
-2880	-47
-2960	-48
-3040	-48
-3040	-49
-3040	-48
-3080	-48
-3160	-48
-3200	-48
-3120	-47
-3200	-48
-3280	-49
-3160	-50
-3280	-49
-3440	-49
-3360	-49
-3280	-49
-3440	-52
-3520	-50
-3440	-50
-3400	-52
-3600	-50
-3520	-49
-3520	-52
-3600	-50
-3760	-50
-3680	-52
-3640	-51
-3760	-50
-3760	-52
-3720	-52
-3840	-52
-4000	-52
-3880	-53
-3960	-52
-4000	-52
-4000	-52
-4040	-53
-4040	-54
-4080	-53
-4000	-54
-4040	-54
-4200	-54
-4200	-54
-4160	-54
-4240	-53
-4320	-55
-4160	-54
-4360	-54
-4400	-54
-4400	-54
-4320	-55
-4480	-54
-4480	-55
-4440	-54
-4440	-56
-4400	-54
-4520	-54
-4440	-54
-4560	-56
-4640	-55
-4680	-56
-4560	-54
-4640	-57
-4640	-54
-4600	-54
-4680	-56
-4720	-54
-4640	-56
-4680	-55
-4800	-57
-4720	-56
-4720	-56
-4720	-56
-4680	-56
-4720	-57
-4800	-56
-4840	-57
-4800	-57
-4760	-56
-4840	-56
-4800	-57
-4880	-56
-4800	-55
-4840	-56
-4840	-56
-4800	-58
-4800	-56
-4840	-56
-4800	-56
-4800	-56
-4880	-56
-4800	-57
-4800	-56
-4800	-58
-4720	-56
-4800	-55
-4720	-57
-4680	-56
-4600	-57
-4680	-56
-4640	-57
-4640	-56
-4640	-56
-4640	-57
-4560	-56
-4560	-54
-4560	-55
-4480	-56
-4400	-56
-4400	-56
-4360	-56
-4360	-54
-4320	-57
-4320	-56
-4240	-56
-4160	-55
-4200	-56
-4080	-55
-4160	-56
-4040	-56
-4040	-54
-4000	-55
-4000	-56
-3960	-55
-3880	-54
-3880	-54
-3800	-56
-3760	-54
-3760	-56
-3720	-54
-3600	-54
-3640	-53
-3600	-54
-3640	-56
-3480	-54
-3400	-53
-3440	-53
-3400	-54
-3240	-52
-3240	-54
-3280	-53
-3200	-55
-3200	-53
-3120	-52
-3120	-54
-3080	-54
-3040	-53
-3040	-53
-2920	-52
-3000	-52
-2880	-52
-2880	-52
-2800	-51
-2760	-52
-2760	-53
-2720	-52
-2640	-52
-2560	-52
-2560	-53
-2600	-51
-2480	-52
-2440	-52
-2400	-52
-2360	-50
-2320	-50
-2360	-50
-2280	-50
-2280	-52
-2240	-50
-2160	-50
-2120	-49
-2040	-51
-2080	-50
-1840	-49
-1960	-49
-1920	-48
-1880	-49
-1920	-50
-1680	-48
-1760	-48
-1760	-48
-1760	-48
-1600	-48
-1600	-48
-1600	-47
-1520	-46
-1480	-46
-1480	-48
-1480	-47
-1440	-46
-1440	-46
-1320	-46
-1280	-46
-1200	-46
-1240	-46
-1160	-45
-1120	-45
-1120	-46
-1040	-45
-1040	-44
-960	-44
-960	-44
-880	-43
-880	-46
-880	-44
-840	-42
-840	-43
-800	-44
-680	-44
-680	-43
-680	-42
-640	-42
-560	-42
-640	-41
-520	-44
-480	-43
-480	-41
-320	-40
-400	-41
-480	-41
-400	-39
-360	-40
-320	-39
-360	-38
-240	-40
-280	-39
-160	-40
-200	-38
-200	-37
-160	-38
-80	-37
-80	-36
-80	-36
-80	-36
80	-36
0	-35
0	-35
0	-35
80	-36
80	-34
80	-34
120	-34
160	-34
120	-34
160	-33
160	-32
160	-32
200	-32
200	-34
240	-33
240	-33
320	-32
80	-33
240	-32
320	-30
320	-31
320	-29
320	-28
400	-29
320	-29
360	-28
320	-29
400	-28
400	-27
400	-29
400	-26
400	-27
520	-26
400	-26
440	-26
400	-25
480	-25
560	-26
480	-25
480	-23
440	-25
480	-22
560	-23
560	-23
520	-22
480	-22
480	-22
520	-21
600	-21
480	-22
560	-20
560	-21
520	-19
560	-18
560	-20
560	-18
520	-17
720	-16
640	-17
600	-17
600	-18
560	-17
560	-19
560	-17
640	-16
560	-16
600	-16
560	-15
640	-15
640	-16
680	-14
600	-13
640	-13
640	-14
680	-12
720	-12
640	-12
640	-12
720	-12
640	-10
720	-11
720	-10
640	-11
760	-10
640	-10
720	-10
680	-9
720	-8
720	-8
720	-6
720	-6
720	-6
800	-6
720	-6
640	-5
720	-5
800	-5
400	-6
640	-5
760	-4
720	-2
720	-3
640	-4
840	-4
760	-3
760	-2
800	-2
760	-1
840	0
720	-1
720	0
800	0
800	2
800	0
800	0
800	2
720	3
720	2
960	2
880	3
800	3
840	4
880	4
880	4
880	4
880	4
880	4
800	6
880	6
960	6
800	6
880	7
960	8
840	8
1040	7
1000	10
80	0
720	8
920	10
880	10
1000	10
920	9
920	12
920	11
960	12
1040	11
960	11
960	12
1040	12
1000	14
1000	15
1120	15
1040	14
920	15
1080	14
1040	16
1040	15
1040	15
1040	15
1040	17
1040	16
1040	17
1200	18
1080	16
1200	19
1040	19
1120	19
1200	20
1120	20
1120	20
1160	21
1120	20
1240	22
1120	22
1160	22
1280	24
1120	22
1200	24
1280	22
1160	24
1280	23
1160	24
1360	27
1240	27
1320	26
1360	26
1280	26
1360	26
1400	27
1400	27
1360	28
1360	30
1320	28
1440	28
1440	29
1440	30
1360	30
1440	32
1520	30
1520	30
1520	31
1520	30
1520	32
1600	32
1640	32
1680	32
1560	34
1640	34
1720	34
1680	34
1640	34
1680	34
1680	36
1760	35
1840	34
1680	36
1760	36
1840	35
1800	36
1840	36
1920	38
1840	38
1840	38
1920	38
1920	38
2000	39
1920	37
2000	38
2000	38
2080	39
2120	39
2040	40
2080	40
2080	40
2080	40
2120	41
2240	41
2280	41
2200	41
2200	42
2360	44
2320	42
2240	42
2400	43
2400	43
2400	43
2480	43
2400	44
2480	44
2480	44
2480	46
2560	46
2640	45
2640	46
2640	44
2640	44
2800	46
2640	47
2800	47
2800	48
2800	46
2720	47
2960	48
2880	47
2880	47
2960	48
3000	48
3040	46
3080	48
3160	47
3040	49
3160	49
3160	50
3200	50
3200	50
3320	50
3280	50
3360	51
3360	50
3440	50
3400	51
3400	51
3520	50
3600	50
3600	52
3640	52
3600	51
3680	51
3680	50
3680	54
3760	52
3760	51
3920	54
3800	52
3840	52
3920	53
4000	52
3920	53
4000	52
4000	54
4080	54
4040	54
4080	54
4200	54
4160	54
4160	52
4080	54
4400	54
4240	54
4160	54
4440	54
4400	54
4280	54
4440	55
4440	54
4400	54
4400	54
4560	55
4600	56
4520	56
4560	55
4560	56
4560	57
4560	55
4640	55
4600	55
4720	56
4720	56
4720	55
4720	56
4840	54
4800	56
4680	55
4800	56
4800	57
4720	56
4840	56
4880	56
4880	57
4800	56
4840	55
4960	56
4760	56
4840	55
4920	56
4800	56
4800	56
4840	56
4840	55
4800	58
4800	56
4800	56
4840	55
4840	56
4800	56
4800	56
4760	56
4800	56
4720	57
4760	55
4720	57
4720	55
4680	56
4720	55
4680	56
4640	56
4560	56
4560	56
4560	57
4480	58
4480	56
4560	56
4400	56
4400	56
4360	56
4320	55
4320	55
4320	56
4320	55
4240	55
4120	56
4160	56
4080	54
4080	56
4040	54
4040	54
3960	56
3920	55
3880	55
3960	55
3840	55
3840	56
3800	54
3760	54
3680	55
3600	53
3520	54
3600	54
3520	54
3520	54
3440	54
3320	55
3360	54
3280	54
3280	54
3280	53
3280	54
3160	54
3160	54
3200	56
3120	54
3040	54
2920	54
2880	53
2800	54
2880	52
2880	53
2800	51
2720	54
2720	52
2640	52
2640	51
2640	52
2520	52
2520	51
2440	51
2400	51
2440	50
2440	51
2320	50
2240	51
2280	50
2240	49
2200	50
2160	50
2080	51
2040	50
2040	49
2000	50
1920	50
1920	49
1840	49
1880	48
1840	48
1760	48
1720	48
1760	48
1600	48
1600	48
1600	47
1560	48
1480	46
1440	47
1440	47
1400	47
1360	46
1360	47
1320	47
1200	44
1200	46
1160	45
1200	45
1120	44
1040	44
1040	44
960	44
1040	43
920	45
880	44
880	44
800	42
800	43
800	42
800	42
720	42
680	40
640	42
640	43
560	43
560	42
520	40
480	42
480	40
480	39
440	42
400	40
400	40
320	39
240	36
240	39
280	39
240	37
200	38
80	37
120	38
80	38
80	36
40	35
80	36
0	36
40	36
0	37
-80	35
40	36
0	36
-80	34
-160	34
-80	34
-160	32
-160	34
-160	33
-160	32
-160	33
-200	32
-240	32
-240	32
-240	30
-240	31
-280	31
-320	30
-320	30
-320	30
-320	31
-320	30
-400	30
-360	27
-360	30
-320	26
-320	28
-400	27
-400	30
-400	26
-400	26
-520	27
-520	27
-480	26
-440	26
-400	26
-520	26
-560	24
-440	24
-480	24
-480	23
-520	22
-480	22
-520	22
-600	22
-560	22
-440	22
-520	22
-520	20
-560	20
-560	20
-400	19
-560	19
-640	20
-640	19
-480	18
-560	18
-640	18
-600	18
-520	16
-640	18
-600	16
-560	16
-600	15
-560	16
-760	14
-640	14
-640	15
-560	15
-640	15
-800	12
-560	14
-640	12
-640	14
-720	12
-640	11
-640	10
-640	11
-600	11
-640	10
-720	10
-640	10
-680	9
-720	8
-640	8
-600	7
-720	7
-760	8
-680	6
-720	8
-800	6
-720	6
-640	6
-720	7
-720	6
-680	6
-720	4
-800	4
-760	3
-720	4
-840	3
-680	6
-720	2
-840	1
-800	2
-240	7
-560	4
-840	0
-840	0
-720	0
-1080	-5
-800	-1
-800	-1
-800	-2
-880	-2
-880	-2
-760	-2
-880	-4
-880	-4
-800	-4
-880	-4
-960	-4
-840	-6
-800	-5
-920	-6
-880	-5
-800	-7
-920	-6
-880	-7
-800	-8
-880	-9
-920	-9
-920	-10
-920	-10
-880	-10
-840	-10
-880	-10
-1000	-10
-960	-10
-840	-10
-1000	-12
-1040	-12
-960	-12
-960	-11
-960	-13
-1200	-14
-960	-13
-1040	-14
-1160	-14
-1040	-16
-880	-13
-960	-16
-880	-14
-1000	-16
-1040	-16
-960	-16
-960	-17
-1040	-16
-1160	-17
-1040	-18
-1040	-18
-1120	-18
-1040	-18
-1040	-20
-1080	-20
-1120	-20
-1080	-20
-1200	-19
-1040	-20
-1080	-21
-1240	-22
-1240	-22
-1200	-20
-1120	-23
-1280	-22
-1280	-22
-1200	-23
-1280	-22
-1320	-25
-1240	-23
-1200	-24
-1360	-26
-1320	-25
-1200	-26
-1440	-28
-1200	-26
-1360	-28
-1360	-28
-1440	-28
-1320	-28
-1440	-28
-1440	-29
-1440	-30
-1360	-30
-1480	-30
-1440	-31
-1520	-32
-1480	-30
-1520	-32
-1560	-31
-1520	-32
-1600	-34
-1480	-32
-1520	-32
-1600	-33
-1640	-33
-1560	-33
-1600	-34
-1600	-34
-1680	-34
-1680	-37
-1800	-34
-1680	-36
-1760	-36
-1760	-36
-1840	-36
-1800	-37
-1760	-37
-1880	-38
-1800	-37
-1840	-38
-1920	-36
-1960	-39
-1840	-38
-1920	-38
-2040	-40
-2040	-39
-2000	-40
-2000	-40
-2080	-41
-2080	-39
-2080	-42
-2120	-40
-2240	-41
-2160	-41
-2240	-42
-2200	-42
-2240	-42
-2160	-42
-2320	-44
-2280	-43
-2320	-42
-2360	-42
-2480	-44
-2360	-44
-2400	-44
-2480	-45
-2480	-44
-2520	-45
-2520	-44
-2560	-45
-2640	-45
-2640	-46
-2640	-46
-2720	-46
-2680	-46
-2800	-48
-2720	-46
-2800	-46
-2840	-46
-2800	-46
-2880	-48
-2840	-47
-2920	-48
-2880	-46
-2960	-48
-3040	-48
-3120	-48
-3120	-50
-3080	-49
-3160	-48
-3200	-46
-3200	-48
-3280	-49
-3240	-50
-3200	-49
-3360	-50
-3440	-50
-3400	-50
-3360	-50
-3400	-53
-3480	-50
-3440	-50
-3480	-50
-3720	-52
-3680	-50
-3480	-52
-3720	-52
-3640	-51
-3680	-53
-3760	-50
-3880	-52
-3760	-52
-3760	-52
-4000	-52
-4000	-52
-3880	-52
-4000	-53
-4000	-52
-4000	-53
-4000	-52
-4080	-54
-4160	-54
-4160	-53
-4120	-54
-4200	-54
-4160	-54
-4280	-54
-4320	-56
-4320	-54
-4240	-54
-4320	-54
-4440	-54
-4400	-55
-4400	-55
-4440	-55
-4480	-56
-4400	-54
-4520	-54
-4560	-56
-4560	-55
-4400	-56
-4640	-55
-4640	-56
-4520	-55
-4640	-57
-4800	-56
-4600	-57
-4560	-56
-4720	-54
-4800	-56
-4680	-56
-4640	-56
-4760	-56
-4640	-56
-4680	-55
-4800	-58
-4800	-56
-4720	-58
-4880	-57
-4800	-56
-4840	-56
-4800	-55
-4840	-54
-4720	-57
-4840	-56
-4840	-57
-4800	-54
-4840	-57
-4840	-56
-4840	-56
-4800	-56
-4800	-57
-4840	-54
-4800	-56
-4800	-57
-4800	-58
-4720	-57
-4800	-58
-4720	-55
-4680	-57
-4720	-56
-4680	-57
-4640	-56
-4640	-56
-4640	-56
-4640	-56
-4640	-56
-4520	-57
-4480	-56
-4480	-55
-4400	-56
-4400	-56
-4360	-56
-4320	-56
-4360	-54
-4320	-56
-4200	-54
-4160	-56
-4160	-56
-4160	-54
-4120	-56
-4040	-56
-4040	-55
-4040	-55
-4000	-54
-3920	-56
-3920	-55
-3840	-55
-3840	-56
-3760	-54
-3760	-54
-3680	-56
-3600	-53
-3600	-54
-3600	-53
-3520	-54
-3520	-54
-3440	-54
-3360	-54
-3360	-54
-3360	-54
-3280	-54
-3360	-53
-3240	-52
-3200	-54
-3200	-53
-3120	-52
-3120	-53
-3040	-53
-3080	-53
-2960	-53
-2920	-52
-2800	-54
-2880	-52
-2800	-52
-2760	-53
-2720	-50
-2720	-50
-2640	-52
-2640	-52
-2600	-52
-2600	-52
-2480	-52
-2440	-51
-2440	-50
-2280	-52
-2320	-50
-2240	-50
-2280	-49
-2200	-50
-2160	-50
-2120	-50
-2080	-49
-2080	-50
-2000	-50
-2000	-49
-2000	-49
-1920	-49
-1880	-49
-1840	-48
-1880	-49
-1800	-48
-1680	-47
-1680	-47
-1640	-48
-1600	-48
-1520	-48
-1520	-48
-1480	-48
-1480	-48
-1440	-47
-1440	-46
-1360	-46
-1320	-47
-1280	-46
-1280	-46
-1160	-47
-1120	-44
-1120	-46
-1240	-47
-960	-45
-1040	-44
-1040	-45
-960	-44
-880	-44
-840	-44
-800	-43
-800	-42
-800	-42
-720	-42
-800	-42
-680	-42
-640	-42
-640	-42
-560	-42
-600	-42
-560	-41
-480	-41
-480	-40
-400	-40
-400	-40
-320	-39
-360	-40
-320	-40
-320	-41
-280	-40
-240	-39
-200	-40
-160	-39
-160	-38
-160	-38
-160	-36
-80	-36
-80	-36
-40	-36
-40	-36
-40	-36
0	-36
0	-35
-40	-38
80	-36
120	-36
160	-36
120	-34
0	-34
80	-33
160	-33
160	-33
240	-32
160	-32
240	-32
240	-32
280	-32
320	-33
240	-32
320	-32
320	-32
320	-32
320	-30
320	-29
360	-30
320	-29
360	-28
360	-28
400	-29
440	-29
400	-28
440	-26
480	-26
440	-28
440	-26
440	-26
400	-24
440	-27
480	-24
480	-25
480	-24
480	-23
480	-24
560	-21
480	-24
520	-22
560	-23
480	-22
440	-22
600	-21
480	-20
600	-21
560	-21
480	-20
560	-20
560	-20
600	-17
560	-20
560	-18
600	-18
560	-18
480	-18
640	-16
640	-17
640	-16
560	-16
600	-16
680	-16
560	-15
600	-14
600	-14
640	-13
600	-12
720	-14
720	-13
640	-13
720	-12
640	-12
720	-11
720	-12
640	-12
640	-10
640	-12
400	-14
640	-11
640	-9
720	-9
720	-8
720	-6
800	-9
720	-8
640	-8
720	-8
760	-7
800	-5
720	-6
720	-5
760	-4
720	-5
800	-6
880	-4
640	-4
760	-3
800	-3
720	-4
800	-1
760	-2
720	-2
800	0
800	-1
760	-1
800	0
720	0
880	1
760	0
800	1
960	1
800	2
720	3
880	2
880	3
880	4
880	4
1120	6
880	4
800	6
880	4
1120	6
800	7
800	5
880	6
880	7
920	7
960	9
840	6
880	7
920	9
880	9
960	10
920	10
880	10
880	11
920	11
1040	12
920	10
920	10
920	12
880	12
1040	12
920	14
920	14
960	14
960	14
1120	14
1040	15
1000	15
960	16
1000	16
1040	17
1120	15
1040	16
960	14
800	15
1080	18
1120	19
1120	18
920	16
1040	18
1120	20
1120	19
1200	20
1200	22
1160	19
1120	21
1200	22
1280	20
1200	24
1120	22
1240	23
1240	26
1200	24
1280	24
1280	24
1280	25
1280	24
1280	26
1400	27
1280	27
1360	28
1360	28
1400	28
1520	27
1360	28
1440	28
1360	30
1480	30
1440	30
1440	30
1440	30
1440	32
1440	31
1520	32
1520	32
1520	32
1600	32
1520	34
1520	34
1600	32
1600	35
1680	32
1560	34
1760	34
1720	34
1680	35
1680	34
1760	35
1760	35
1840	35
1840	37
1800	36
1840	38
1840	38
1920	38
1840	39
1840	36
1880	38
1880	40
2080	38
1920	38
2000	38
2000	40
1960	39
2040	39
2160	40
2120	40
2160	42
2000	41
2240	42
2240	40
2200	42
2280	42
2240	42
2280	43
2400	43
2400	43
2400	43
2440	44
2400	44
2400	44
2520	44
2520	44
2520	44
2560	46
2640	46
2640	46
2600	46
2720	46
2560	46
2720	46
2640	45
2880	46
2800	47
2760	47
2960	48
2920	47
2920	47
3040	47
3000	49
3040	46
3000	47
3120	48
3040	48
3200	49
3120	48
3120	50
3200	50
3360	50
3280	48
3360	50
3320	50
3360	50
3480	51
3440	50
3480	52
3480	51
3520	50
3600	50
3680	51
3600	52
3760	51
3680	51
3760	52
3760	52
3920	52
3840	52
3800	53
3840	53
3960	52
4000	53
4000	54
4040	52
4120	53
4080	54
4000	54
4240	54
4160	54
4160	54
4280	54
4280	54
4240	54
4320	55
4400	54
4280	54
4280	56
4440	55
4480	56
4400	56
4480	54
4520	55
4480	54
4480	55
4560	56
4560	56
4480	56
4720	55
4640	54
4560	56
4720	56
4800	57
4600	55
4680	56
4760	56
4760	55
4720	55
4840	55
4760	56
4640	57
4720	56
4880	57
4800	57
4800	55
4800	55
4880	56
4720	57
4880	57
4800	56
4840	56
4800	56
4920	57
4840	55
4840	58
4800	58
4880	55
4840	56
4800	56
4800	56
4840	56
4800	55
4800	56
4800	56
4800	56
4720	56
4720	56
4720	55
4640	58
4640	56
4680	56
4640	56
4600	56
4560	55
4560	56
4480	56
4480	55
4480	57
4480	56
4440	56
4400	56
4280	56
4320	56
4280	56
4280	55
4200	54
4160	55
4080	56
4080	56
4080	56
4000	54
3960	55
3920	56
3880	55
3840	55
3840	55
3760	55
3680	54
3720	55
3680	54
3640	52
3600	55
3520	54
3480	54
3480	54
3480	53
3360	53
3320	54
3320	54
3280	54
3240	54
3200	54
3160	54
3040	54
3120	53
3000	54
3040	51
3000	53
2920	51
2880	52
2880	51
2840	52
2720	51
2720	51
2640	53
2720	52
2560	52
2560	52
2560	50
2520	51
2480	50
2480	51
2320	51
2400	50
2320	51
2320	50
2240	51
2240	49
2160	51
2200	51
2160	50
2080	51
2000	50
2000	48
1920	48
1880	48
1880	50
1840	48
1840	49
1760	47
1760	49
1680	48
1600	48
1560	47
1560	47
1520	48
1520	46
1440	47
1440	47
1440	47
1360	46
1240	46
1240	46
1200	45
1200	46
1120	46
1120	45
1080	46
1040	45
1040	44
1040	44
960	42
920	44
920	43
840	43
800	44
800	43
720	43
560	41
680	42
720	42
560	43
640	42
600	42
560	44
480	41
520	42
400	40
440	40
400	40
440	39
320	39
320	39
280	40
240	38
320	37
240	38
160	40
160	38
120	38
80	38
80	36
120	38
80	36
80	36
-40	36
0	36
-40	35
-40	35
-40	35
-80	36
-80	32
-80	36
-160	32
-160	34
-160	33
-200	31
-160	32
-400	32
-160	32
-240	30
-240	32
-240	30
-320	32
-280	31
-280	30
-320	30
-360	30
-400	30
-400	29
-320	30
-320	28
-400	30
-400	28
-440	28
-400	28
-480	27
-400	28
-360	26
-520	26
-480	26
-320	24
-520	24
-520	24
-480	24
-480	24
-560	22
-520	22
-480	22
-560	22
-560	22
-440	22
-520	22
-520	20
-400	22
-560	20
-680	20
-480	20
-640	19
-600	19
-720	19
-640	18
-560	18
-560	19
-600	16
-560	17
-640	17
-560	16
-640	16
-640	16
-600	15
-560	16
-640	15
-560	14
-600	15
-720	14
-640	14
-680	15
-720	14
-640	12
-640	13
-560	12
-680	13
-720	12
-640	11
-720	12
-680	10
-680	11
-680	8
-760	10
-600	8
-640	9
-800	8
-720	8
-680	7
-800	6
-760	6
-440	8
-520	8
-800	5
-720	6
-720	6
-640	6
-600	5
-720	4
-800	3
-800	3
-680	3
-800	2
-800	2
-800	2
-760	1
-760	0
-800	0
-800	0
-760	-1
-800	-1
-800	0
-800	-1
-720	-1
-720	-1
-760	-1
-840	-2
-840	-2
-800	-2
-880	-4
-880	-4
-800	-2
-840	-5
-800	-4
-840	-5
-800	-5
-880	-5
-880	-6
-880	-6
-920	-6
-840	-6
-1520	-15
-1040	-9
-960	-9
-920	-8
-880	-8
-880	-8
-960	-10
-920	-9
-880	-10
-1000	-10
-880	-11
-960	-12
-960	-12
-920	-10
-960	-12
-1000	-14
-880	-13
-880	-13
-1040	-14
-1120	-14
-960	-15
-880	-16
-1120	-16
-1040	-16
-960	-16
-960	-16
-1040	-17
-960	-17
-1080	-18
-1120	-17
-1200	-18
-1040	-18
-1200	-18
-1040	-18
-1040	-20
-1080	-20
-1240	-20
-1120	-21
-1160	-21
-1400	-22
-1080	-21
-1120	-22
-1200	-22
-1280	-22
-1240	-24
-1280	-22
-1240	-24
-1280	-25
-1320	-24
-1320	-25
-1320	-23
-1280	-25
-1440	-26
-1360	-26
-1280	-28
-1440	-26
-1360	-27
-1440	-27
-1360	-29
-1440	-27
-1400	-28
-1360	-29
-1440	-30
-1520	-32
-1440	-31
-1480	-30
-1480	-32
-1520	-30
-1440	-30
-1600	-32
-1600	-33
-1480	-32
-1520	-32
-1640	-32
-1640	-33
-1600	-34
-1640	-33
-1600	-34
-1680	-36
-1600	-34
-1760	-34
-1760	-36
-1760	-34
-1800	-36
-1760	-35
-1760	-36
-1800	-36
-1760	-36
-1800	-36
-1840	-36
-1920	-37
-1960	-38
-1920	-39
-1960	-39
-1960	-38
-1840	-40
-2080	-40
-2040	-40
-2040	-39
-2080	-39
-2080	-41
-2120	-40
-2040	-41
-2160	-40
-2160	-42
-2080	-42
-2240	-42
-2240	-42
-2320	-42
-2240	-42
-2400	-44
-2400	-44
-2320	-44
-2320	-43
-2440	-44
-2320	-44
-2440	-44
-2480	-45
-2480	-45
-2560	-46
-2640	-46
-2640	-44
-2560	-45
-2640	-47
-2640	-46
-2720	-45
-2760	-46
-2760	-46
-2800	-46
-2840	-47
-2840	-46
-2920	-48
-2880	-48
-2960	-48
-3040	-47
-2960	-47
-3040	-48
-3160	-48
-3080	-49
-3120	-48
-3240	-49
-3200	-48
-3280	-50
-3120	-49
-3360	-50
-3320	-50
-3280	-50
-3440	-50
-3480	-50
-3480	-51
-3440	-50
-3560	-52
-3520	-49
-3520	-53
-3680	-52
-3760	-51
-3640	-50
-3680	-52
-3760	-50
-3840	-53
-3680	-52
-3760	-52
-3840	-50
-3840	-53
-3840	-53
-4000	-53
-4080	-54
-3880	-54
-4040	-54
-4120	-53
-4040	-52
-4040	-54
-4200	-52
-4080	-54
-4080	-53
-4320	-54
-4280	-55
-4240	-54
-4280	-53
-4360	-55
-4200	-54
-4280	-56
-4400	-54
-4480	-56
-4400	-54
-4400	-53
-4480	-56
-4400	-54
-4520	-54
-4520	-54
-4640	-54
-4480	-54
-4560	-56
-4760	-56
-4680	-56
-4520	-57
-4640	-56
-4720	-56
-4640	-54
-4680	-56
-4720	-54
-4760	-56
-4640	-56
-4720	-56
-4680	-56
-4720	-56
-4720	-56
-4800	-56
-4880	-56
-4800	-56
-4800	-57
-4880	-57
-4800	-57
-4800	-56
-4840	-57
-4800	-56
-4800	-58
-4840	-56
-4800	-55
-4760	-56
-4840	-57
-4880	-57
-4680	-58
-4800	-57
-4800	-57
-4800	-57
-4720	-54
-4680	-56
-4720	-57
-4800	-56
-4800	-55
-4720	-56
-4640	-57
-4640	-57
-4640	-58
-4600	-56
-4560	-58
-4480	-58
-4480	-55
-4520	-55
-4400	-54
-4440	-54
-4360	-54
-4320	-56
-4320	-57
-4320	-56
-4240	-54
-4160	-56
-4160	-56
-4160	-55
-4160	-56
-4080	-54
-4040	-54
-4000	-56
-4000	-56
-4000	-57
-3840	-56
-3920	-54
-3840	-56
-3840	-56
-3760	-54
-3720	-56
-3680	-54
-3680	-54
-3600	-55
-3520	-54
-3520	-54
-3520	-53
-3480	-54
-3360	-54
-3360	-53
-3360	-52
-3280	-54
-3280	-52
-3200	-54
-3200	-53
-3160	-53
-2960	-54
-3040	-54
-3040	-54
-3040	-52
-3000	-54
-2720	-52
-2800	-53
-2760	-51
-2800	-53
-2720	-52
-2680	-53
-2680	-52
-2640	-52
-2600	-51
-2560	-51
-2560	-50
-2520	-52
-2440	-52
-2400	-51
-2440	-49
-2320	-50
-2320	-52
-2280	-50
-2200	-49
-2160	-48
-2200	-49
-2120	-49
-2040	-50
-2000	-50
-2000	-50
-1920	-50
-1880	-48
-1920	-48
-1840	-49
-1760	-48
-1760	-48
-1760	-48
-1680	-48
-1640	-46
-1600	-48
-1800	-50
-1520	-48
-1480	-48
-1440	-46
-1440	-45
-1560	-48
-1400	-48
-1320	-46
-1280	-46
-1320	-46
-1200	-45
-1120	-46
-1080	-45
-1040	-45
-1000	-46
-960	-45
-960	-43
-880	-44
-880	-42
-800	-44
-840	-42
-880	-44
-800	-42
-720	-43
-720	-43
-640	-42
-680	-42
-560	-42
-640	-42
-560	-40
-560	-41
-560	-42
-480	-40
-480	-40
-480	-40
-400	-40
-360	-40
-320	-39
-320	-40
-280	-38
-280	-40
-240	-39
-160	-36
-160	-38
-160	-38
-160	-37
-80	-37
-80	-36
-80	-36
-80	-36
-40	-37
0	-36
0	-36
-40	-36
80	-36
80	-35
120	-34
80	-34
120	-34
160	-33
240	-32
160	-32
240	-34
240	-33
240	-32
200	-33
320	-32
320	-32
320	-32
320	-32
360	-31
320	-29
280	-30
400	-29
320	-29
360	-30
320	-29
400	-28
400	-28
600	-26
400	-27
360	-26
440	-26
560	-26
600	-26
400	-26
440	-26
440	-26
560	-24
480	-25
480	-24
480	-25
440	-22
560	-24
560	-23
480	-22
520	-21
520	-22
480	-22
560	-20
600	-20
480	-20
560	-21
600	-20
560	-20
600	-20
560	-19
640	-17
560	-18
640	-18
640	-18
600	-17
600	-17
600	-16
680	-17
560	-16
640	-17
680	-16
560	-14
640	-15
600	-14
720	-14
560	-13
680	-12
600	-14
640	-13
720	-11
720	-12
560	-13
720	-10
720	-10
680	-10
720	-10
800	-10
640	-9
680	-10
640	-9
800	-8
640	-7
800	-8
720	-7
720	-6
760	-6
760	-6
720	-5
640	-4
720	-5
760	-4
720	-5
680	-5
800	-4
720	-4
720	-4
760	-2
760	-2
800	-2
760	-2
720	-2
1360	2
960	-1
720	0
720	0
760	0
600	0
720	0
760	1
800	2
800	2
720	2
920	3
840	2
720	3
920	3
800	4
800	3
920	4
800	4
840	6
880	4
800	7
960	6
920	7
800	8
960	6
880	9
880	7
1000	8
960	10
960	10
920	11
920	12
960	9
960	10
960	10
920	12
960	13
1080	13
1000	12
1000	12
920	12
1040	14
960	14
1120	15
1040	16
1120	14
960	16
1120	16
1040	16
960	16
1080	16
1080	16
1040	17
1080	18
1120	18
1160	18
1080	19
1120	18
1120	19
1160	20
1080	20
1120	19
1120	20
1240	22
1120	22
1120	22
1200	22
1240	24
1120	23
1120	22
1240	24
1200	25
1200	26
1200	25
1360	24
1320	27
1280	26
1360	25
1320	27
1360	27
1360	28
1320	29
1360	29
1400	28
1440	28
1440	28
1440	30
1440	30
1440	30
1520	30
1600	32
1440	32
1480	32
1560	31
1520	32
1640	32
1600	33
1520	34
1600	33
1600	34
1680	34
1680	35
1600	34
1720	34
1720	34
1720	34
1840	35
1720	35
1840	36
1760	35
1880	36
1840	37
1920	38
1840	38
1840	38
1920	38
2040	39
1920	39
2000	38
2000	38
2000	39
2000	40
2040	40
2000	39
2080	39
2040	42
2200	42
2160	42
2200	42
2200	42
2200	41
2200	41
2320	43
2360	44
2320	44
2360	43
2360	44
2360	44
2480	44
2440	44
2480	44
2480	46
2560	44
2560	46
2600	42
2640	46
2560	46
2800	45
2680	46
2760	46
2800	45
2720	47
2800	46
2840	48
2880	48
2880	48
2960	47
3040	48
3040	47
3080	48
3040	48
3040	48
3120	48
3200	50
3160	48
3200	50
3280	48
3280	49
3200	50
3360	51
3440	50
3280	51
3520	51
3520	50
3360	50
3520	50
3680	50
3600	51
3600	51
3600	52
3800	52
3640	52
3720	52
3800	52
3840	52
3760	52
3880	52
4000	52
3840	51
4000	54
4000	52
4000	54
3920	52
4160	53
4040	54
4080	54
4160	54
4280	54
4240	54
4240	55
4440	54
4280	54
4200	54
4360	55
4480	54
4320	55
4440	54
4480	54
4480	54
4400	54
4560	55
4600	56
4480	55
4480	55
4640	55
4600	54
4600	55
4680	55
4680	56
4640	55
4600	55
4800	55
4720	56
4800	54
4720	56
4720	56
4720	56
4840	56
4800	56
4720	56
4760	56
4800	58
4800	55
4880	55
4880	58
4880	57
4800	56
4880	56
4840	56
4800	56
4880	58
4800	56
4880	58
4880	55
4800	56
4840	55
4800	57
4800	56
4800	57
4800	57
4720	56
4760	57
4760	56
4720	56
4640	58
4640	56
4720	58
4640	58
4640	58
4600	58

