#log (T)	log (U)	err_log(U)
3.2397	1.5752	0.4443914434 
3.2717	1.7533	0.3612178975 
3.2971	1.8932	0.211281731 
3.3187	2.0100	0.3316721334
3.3370	2.1071	0.1740150983 
3.3538	2.1892	0.0456785888 
3.3685	2.2626	0.1915192952 
3.3817	2.3297	0.1430776803 
