3.3832627907	-6.1491088159	3.3830429993	3.3834814227	-6.1796014773	-6.1093833971
3.3370192771	-6.0752040042	3.3367308331	3.3373248588	-6.110866444	-6.0395292225
3.3016636133	-6.0409108856	3.3012488249	3.3020779857	-6.0770929753	-6.0032694846

