<?xml version="1.0" encoding="UTF-8" standalone="no"?>
<!DOCTYPE svg PUBLIC "-//W3C//DTD SVG 1.1//EN"
"http://www.w3.org/Graphics/SVG/1.1/DTD/svg11.dtd">
<!-- Creator: dpic version 2015.02.16 option -v for SVG 1.1 -->
<!-- width="155" height="85" -->
<svg
 xmlns="http://www.w3.org/2000/svg" xmlns:xlink="http://www.w3.org/1999/xlink"
 xml:space="preserve"
 style="shape-rendering:geometricPrecision; text-rendering:geometricPrecision;
 image-rendering:optimizeQuality; fill-rule:evenodd; clip-rule:evenodd"
 width="154.477922px" height="83.55px"
 viewBox="0 0 154.477922 83.55"
 font-size="11pt" text-anchor="middle"
 stroke="black" stroke-miterlimit="10" stroke-width="1" fill="none">
<g>
<polyline points="4.75,79.25 4.75,79.25
4.75,56.75
1,54.875
8.5,51.125
1,47.375
8.5,43.625
1,39.875
8.5,36.125
4.75,34.25
4.75,11.75" />
<text font-size="11pt" fill="black"
 stroke-width="0.25"
 text-anchor="start" x="6.125" y="50.3125">
 <tspan font-style="italic">R</tspan>
</text>
<line x1="4.75" y1="11.75" x2="38.5" y2="11.75" />
4.75,11.75
38.5,11.75" />
<line x1="38.5" y1="11.75" x2="61" y2="11.75" />
38.5,11.75
61,11.75" />
<circle cx="72.25" cy="11.75" r="11.25" />
<text font-size="11pt" fill="black"
 stroke-width="0.25"
 x="70.285714" y="16.5625">
 A
</text>
<line x1="83.5" y1="11.75" x2="106" y2="11.75" />
83.5,11.75
106,11.75" />
<circle fill="black"
 cx="106" cy="11.75" r="1.8" />
<line x1="106" y1="11.75" x2="106" y2="34.25" />
106,11.75
106,34.25" />
<circle cx="106" cy="45.5" r="11.25" />
<text font-size="11pt" fill="black"
 stroke-width="0.25"
 x="104.035714" y="50.3125">
 V
</text>
<line x1="106" y1="56.75" x2="106" y2="79.25" />
106,56.75
106,79.25" />
<circle fill="black"
 cx="106" cy="79.25" r="1.8" />
<line x1="106" y1="11.75" x2="139.75" y2="11.75" />
106,11.75
139.75,11.75" />
<line x1="139.75" y1="79.25" x2="139.75" y2="47.375" />
139.75,79.25
139.75,47.375" />
<line x1="134.125" y1="47.375" x2="145.375" y2="47.375" />
134.125,47.375
145.375,47.375" />
<line x1="128.5" y1="43.625" x2="151" y2="43.625" />
128.5,43.625
151,43.625" />
<line x1="139.75" y1="43.625" x2="139.75" y2="11.75" />
139.75,43.625
139.75,11.75" />
<polygon stroke-width="0" fill="black"
 points="144.522971,37.545049 152.477922,32.772078
147.704951,40.727029" />
<line x1="127.022078" y1="58.227922" x2="151.020184" y2="34.229816" />
127.022078,58.227922
151.020184,34.229816" />
<line x1="139.75" y1="79.25" x2="4.75" y2="79.25" />
139.75,79.25
4.75,79.25" />
</g></svg>
