9.4    0.202  0.1
21.8   0.227  0.1
28.0   0.234  0.1
34.4   0.242  0.1
46.2   0.252  0.1
59.1   0.260  0.1
68.7   0.265  0.1
80.4   0.271  0.1
87.3   0.274  0.1
102.7  0.280  0.1
115.1  0.284  0.1
207.2  0.307  0.1
301.6  0.322  0.1
406.8  0.335  0.1
502.2  0.345  0.1
592    0.352  1
713    0.361  1
799    0.367  1
908    0.373  1
999    0.378  1
1012   0.379  1
2998   0.442  1
5002   0.472  1
6980   0.491  10
9030   0.505  10
10940  0.515  10
12930  0.524  10
15060  0.533  10
17020  0.539  10
18900  0.545  10
20420  0.550  10
19970  0.548  10
28760  0.568  100
40000  0.587  100
49200  0.599  100
62200  0.613  100
70200  0.621  100
82500  0.631  100
89400  0.636  100
99700  0.644  100

T=42.447

10.5   0.146
18.8   0.165
30.2   0.181
39.0   0.190
52.3   0.200
59.8   0.204
70.9   0.210
81.3   0.215
90.8   0.219
100.1  0.223
201    0.249
310.9  0.267
389.8  0.277
508    0.289
602    0.297
703    0.305
811    0.312
908    0.318
1019   0.325
3022   0.389
5076   0.421
7220   0.443
8910   0.457
11020  0.470
13500  0.484
14830  0.490
17130  0.500
18720  0.506
20350  0.511
29590  0.539
40870  0.566
50700  0.586
60200  0.604
69300  0.620
77300  0.632
92000  0.654
104000 0.671

T=42.790
------
2V T=55.194

9.7 0.111
19.7 0.135
29.9 0.149
40.9 0.159
51.0 0.168
61.4 0.174
71.8 0.180
81.5 0.184
90.2 0.188
100.2 0.193
199.5 0.219
313 0.237
431 0.251
507 0.259
616 0.268
725 0.276
808 0.282
908 0.287
1001 0.293
3125 0.358
5160 0.388
7340 0.410
8990 0.422
10790 0.434
13100 0.447
15260 0.457
17360 0.466
19000 0.472
20900 0.479
30600 0.493
40240 0.514
49900 0.531
61700  0.567
71900  0.582
80400  0.594
90600  0.608
101500 0.622

------  T=55.506
vaq=15.5V T=71.091

 10.4  0.074
 20.7  0.0970
 31.0  0.1106
 39.7  0.1191
 50.0  0.1272
 63.3  0.1355
 72.0  0.1400
 81.0  0.1443
 91.6  0.1488
 106.8 0.1545
 201.7 0.1791
 310.2 0.1968
 424.2 0.2102
 519.6 0.2191
 604   0.2255
 702   0.2325
 810   0.2391
 919   0.2454
 1011  0.2502
 3014  0.3087
 5093  0.3392
 6.80  0.3568
 9.33  0.3769
 1101  0.3861
 1304  0.3964
 1489  0.4047
 1685  0.4126
 1906  0.411
 2064  0.415
 2995  0.440
 4040  0.460
 5020  0.475
 5920  0.501
 7090  0.515
 8080  0.526
 8960  0.535
 10460 0.549

------  T=71.982
vaq=15.5V T=85.585

10.3  0.0459
20.2  0.0663
31.2  0.0807
40.2  0.0894
49.9  0.0970
60.3  0.1037
70.3  0.1095
80.7  0.1146
89.7  0.1106
101.3 0.1234
19.69 0.1493
30.29 0.1668
4142  0.1800
5074  0.1889
6130  0.1971
6940  0.2027
9050  0.2096
9180  0.2157
10300 0.2213
30100 0.2767
50450 0.3058
70300 0.3254 
91200 0.3410
11000 0.3523
13130 0.3632
14950 0.3712
16980 0.3791
19020 0.3862
19820 0.3888
30080 0.4038
40000 0.4229
50300 0.4384
59400 0.465
71100 0.478
79900 0.487
89000 0.496
100700 0.506
------  T=85.688

vaq=15.5V T=100.84
i  v
u    
10.0   0.0281
19.3   0.0354
31.7   0.0488
39.9   0.0557
51.7   0.0640
62.2   0.0703
71.0   0.0748
80.1   0.0788
91.3   0.0843
101.6  0.0874
199.9  0.1123
307.4  0.1307
420.3  0.1438
515.6  0.1526
616    0.1603
693    0.1656
799    0.1720
904    0.1776
1001.1 0.1828
3021   0.2378
4928   0.2646
7030   0.2855
9120   0.3011
11070  0.3131
12920  0.3229
15030  0.3326
16890  0.3402
18910  0.3476
19960  0.3514
30060  0.3664
40480  0.3877
49920  0.4030
62200  0.4337
70900  0.4443
80500  0.4549
89600  0.4642
99100  0.4733
------  T=101.867
