3840.83		0.0092316749	0.0001715604
3875.433	0.0091494677	0.0001707139
3910.035	0.0091742932	0.0001707194
3944.637	0.0091392771	0.0001705268
3979.239	0.0092454444	0.0001713764
4013.841	0.0091265356	0.0001702455
4048.443	0.0092718656	0.0001714702
4083.045	0.0092458459	0.0001711875
4117.647	0.009223812	0.0001709062
4152.249	0.0092252383	0.000170904
4186.851	0.009168432	0.0001704303
4221.453	0.0091863921	0.0001705253
4256.055	0.0091244201	0.0001698683
4290.657	0.0090984004	0.0001695856
4325.26		0.0091964468	0.0001704284
4359.862	0.0091963261	0.000170334
4394.464	0.0091256285	0.0001695835
4429.066	0.0092220362	0.0001704234
4463.668	0.0090510837	0.0001688316
4498.27		0.0091039626	0.0001693879
4532.872	0.009112642	0.0001694774
4567.474	0.0091723453	0.0001698539
4602.076	0.0091548479	0.0001697547
4636.678	0.0091544833	0.000169665
4671.28		0.0091055195	0.00016919
4705.882	0.0091104667	0.0001693712
4740.484	0.0091435807	0.0001695586
4775.087	0.0091813249	0.0001699272
4809.689	0.0091512715	0.0001696469
4844.291	0.0092049406	0.0001701084
4878.893	0.0092074183	0.0001701038
4913.495	0.0091891137	0.000169914
4948.097	0.0091729896	0.0001697193
4982.699	0.009149973	0.0001694374
5017.301	0.0091906272	0.0001698065
5051.903	0.0091675765	0.0001696138
5086.505	0.0092724153	0.0001704477
5121.107	0.0091905549	0.0001697865
5155.709	0.0091135674	0.000169038
5190.311	0.0091543084	0.0001693107
5224.913	0.0091345729	0.0001692158
5259.516	0.0091792777	0.0001696689
5294.118	0.0091651912	0.0001694814
5328.72		0.0091221827	0.0001691041
5363.322	0.0091275139	0.0001691005
5397.924	0.0092138921	0.0001699288
5432.526	0.0092566538	0.0001702897
5467.128	0.0090666102	0.0001684302
5501.73		0.0091848336	0.0001696267
5536.332	0.0091653971	0.0001693388
5570.934	0.0091083892	0.0001687751
5605.536	0.0091265821	0.0001690454
5640.138	0.0091446112	0.0001688578
5674.74		0.0090971727	0.0001686623
5709.343	0.0091759425	0.0001694907
5743.945	0.0091796696	0.0001694848
5778.547	0.0090897427	0.00016864
5813.149	0.009210592	0.0001698445
5847.751	0.0091844126	0.0001695509
5882.353	0.0091792207	0.0001695473
5916.955	0.0091953319	0.0001696296
5951.557	0.0092350639	0.0001700835
5986.159	0.0091411475	0.0001690593
6020.761	0.0092896664	0.0001706176
6055.363	0.0091141849	0.0001687656
6089.965	0.0091114772	0.0001687544
6124.567	0.0091748289	0.0001693825
6159.17		0.0091955573	0.0001697422
6193.772	0.0091955431	0.0001695458
6228.374	0.0091650943	0.0001692584
6262.976	0.009128293	0.0001688878
6297.578	0.0091744186	0.0001693244
6332.18		0.0091093915	0.0001688538
6366.782	0.0091367895	0.0001690414
6401.384	0.0091749356	0.0001694813
6435.986	0.0091383411	0.0001691109
6470.588	0.0092321094	0.0001702005
