t	V 	        P	        T
674.74	233.59249	96.459096	290.18177
692.042	234.05596	95.970696	289.55963
709.343	234.05596	95.970696	289.24856
726.644	234.21045	95.970696	289.09302
743.945	234.05596	95.970696	289.55963
761.246	234.05596	96.459096	289.71517
778.547	234.05596	96.947497	289.09302
795.848	234.05596	96.947497	289.71517
813.149	234.21045	95.970696	289.24856
830.45	234.05596	95.970696	289.24856
847.751	234.05596	96.459096	289.09302
865.052	233.90147	95.970696	289.24856
882.353	233.90147	96.459096	289.71517
899.654	233.74698	96.459096	289.71517
916.955	233.90147	96.947497	289.55963
934.256	233.90147	97.435897	289.71517
951.557	233.90147	97.924298	289.24856
968.858	234.21045	97.924298	289.09302
986.159	234.05596	96.459096	289.24856
1003.46	234.05596	95.970696	289.09302
1020.761	234.05596	95.970696	289.24856
1038.062	234.05596	96.459096	289.71517
1055.363	234.05596	96.459096	289.71517
1072.664	233.90147	97.435897	289.71517
1089.965	234.51943	96.947497	289.71517
1107.266	234.21045	97.924298	289.71517
1124.567	234.05596	96.459096	289.71517
1141.869	234.05596	96.459096	289.24856
1159.17	234.05596	96.947497	289.24856
1176.471	234.05596	99.8779	289.8707
1193.772	232.66554	103.7851	291.5816
1211.073	225.40447	115.99512	295.15893
1228.374	211.5003	133.08913	301.38037
1245.675	192.9614	158.97436	310.40146
1262.976	171.48717	188.76679	323.31095
1280.277	149.70396	218.55922	337.15365
1297.578	135.33631	240.53724	349.75207
1314.879	125.13992	257.63126	360.63959
1332.18	118.6513	271.79487	368.41639
1349.481	112.78065	286.44689	376.19319
1366.782	108.30041	304.0293	383.03678
1384.083	103.66569	325.03053	390.19143
1401.384	98.567491	340.65934	397.19056
1418.685	95.632165	342.12454	401.7011
1435.986	95.632165	338.21734	403.412
1453.287	95.323183	335.77534	404.18968
1470.588	95.477674	333.33333	404.34521
1487.889	95.786656	331.37973	403.8786
1505.19	95.168692	330.40293	403.10092
1522.491	94.859711	326.49573	402.32324
1539.792	95.323183	326.98413	402.16771
1557.093	95.168692	326.00733	400.92342
1574.394	95.323183	324.05372	400.61235
1591.696	95.323183	322.58852	400.45681
1608.997	95.477674	322.58852	399.21252
1626.298	95.632165	319.65812	398.43484
1643.599	95.632165	318.68132	398.12377
1660.9	95.941147	318.68132	397.34609
1678.201	96.095637	315.75092	396.56841
1695.502	95.941147	315.26252	396.25734
1712.803	95.786656	313.79731	395.6352
1730.104	96.095637	313.30891	395.47966
1747.405	95.941147	312.82051	394.39091
1764.706	96.095637	311.84371	393.61323
1782.007	96.095637	309.40171	392.99108
1799.308	96.250128	308.42491	392.05787
1816.609	96.250128	306.47131	391.28019
1833.91	95.941147	306.95971	390.50251
1851.211	96.250128	305.98291	388.79161
1868.512	96.095637	304.5177	388.01393
1885.813	96.404619	303.5409	385.05875
1903.114	96.095637	303.0525	382.57017
1920.415	95.941147	302.0757	380.23713
1937.716	96.095637	301.0989	376.97087
1955.017	96.095637	300.6105	374.17122
1972.318	95.941147	298.1685	371.0605
1989.619	96.095637	297.6801	367.79425
2006.92	96.095637	296.7033	364.21692
2024.221	96.095637	295.2381	361.57281
2041.522	96.250128	294.74969	359.3953
2058.824	96.095637	294.26129	356.12905
2076.125	96.095637	293.77289	353.48493
2093.426	96.095637	292.30769	351.15189
2110.727	95.941147	291.33089	348.97439
2128.028	96.095637	291.33089	347.10796
2145.329	95.941147	289.37729	345.70813
2162.63	96.095637	288.88889	343.53063
2179.931	96.095637	287.91209	342.1308
2197.232	95.941147	287.42369	341.04205
2214.533	95.941147	287.42369	339.9533
2231.834	95.941147	286.44689	338.70901
2249.135	96.095637	284.49328	337.30919
2266.436	96.095637	284.00488	336.53151
2283.737	96.095637	284.00488	336.37597
2301.038	96.250128	283.02808	335.28722
2318.339	96.250128	283.51648	334.50954
2335.64	96.250128	280.58608	334.04293
2352.941	96.250128	281.56288	333.73186
2370.242	96.095637	281.07448	332.79864
2387.543	96.404619	280.58608	332.95418
2404.844	96.250128	280.58608	333.26525
2422.145	96.095637	279.60928	332.48757
2439.446	96.095637	279.60928	332.1765
2456.747	96.250128	278.14408	332.02096
2474.048	96.250128	277.65568	331.39882
2491.349	96.250128	279.60928	331.08775
2508.651	96.404619	277.65568	331.08775
2525.952	96.095637	277.16728	330.62114
2543.253	96.095637	276.67888	330.77668
2560.554	96.095637	276.67888	330.62114
2577.855	96.250128	275.70208	329.999
2595.156	96.095637	275.70208	329.999
2612.457	96.250128	275.70208	329.84346
2629.758	95.941147	274.23687	329.53239
2647.059	96.095637	275.70208	329.53239
2664.36	95.941147	273.26007	328.91024
2681.661	95.941147	274.23687	328.75471
2698.962	96.095637	273.26007	328.13256
2716.263	95.941147	273.26007	327.66595
2733.564	95.941147	271.30647	327.04381
2750.865	95.941147	271.30647	326.5772
2768.166	96.095637	271.79487	326.42167
2785.467	95.786656	271.79487	325.64399
2802.768	95.941147	270.32967	325.02184
2820.069	95.941147	271.30647	325.02184
2837.37	95.941147	270.81807	324.24416
2854.671	95.941147	271.79487	323.62202
2871.972	95.786656	269.35287	322.84434
2889.273	96.095637	270.32967	322.37773
2906.574	96.250128	267.39927	322.06666
2923.875	96.250128	268.37607	321.28898
2941.176	96.095637	267.88767	320.82237
2958.478	96.095637	268.37607	320.35576
2975.779	95.941147	268.37607	319.88915
2993.08	95.941147	268.37607	319.42255
3010.381	96.250128	265.44567	318.95594
3027.682	95.632165	246.88645	315.84522
3044.983	99.803418	211.23321	308.37949
3062.284	111.39023	176.06838	296.86982
3079.585	127.92075	148.71795	286.13784
3096.886	144.91474	129.18193	279.13872
3114.187	161.59975	114.04151	272.76174
3131.488	180.60213	103.2967	267.47352
3148.789	193.88834	96.459096	263.27404
3166.09	206.55659	91.086691	259.69671
3183.391	215.36257	87.179487	257.36367
3200.692	224.01405	82.295482	255.34171
3217.993	232.04758	81.318681	253.94188
3235.294	234.05596	78.876679	249.12026
3252.595	233.90147	84.249084	253.00867
3269.896	234.05596	80.830281	252.85313
3287.197	234.05596	82.783883	253.78635
3304.498	233.90147	84.249084	253.78635
3321.799	234.05596	84.249084	254.8751
3339.1	234.05596	82.783883	254.8751
3356.401	233.90147	82.295482	254.71956
3373.702	234.05596	83.760684	254.8751
3391.003	234.05596	84.249084	255.03063
3408.304	234.05596	83.272283	255.49724
3425.606	234.05596	83.760684	255.65278
3442.907	234.05596	83.760684	256.27492
3460.208	234.05596	84.737485	257.0526
3477.509	234.21045	85.714286	257.67475
3494.81	234.05596	84.249084	257.83028
3512.111	234.05596	84.249084	258.60796
3529.412	234.21045	84.737485	258.91903
3546.713	234.05596	84.249084	259.85225
3564.014	234.21045	84.737485	260.941
3581.315	233.90147	85.714286	261.56315
3598.616	234.05596	85.714286	262.34083
3615.917	233.90147	86.202686	262.96297
3633.218	233.90147	88.156288	263.89619
3650.519	234.05596	85.714286	263.89619
3667.82	234.36494	88.156288	264.98494
3685.121	233.74698	88.156288	265.14047
3702.422	234.05596	86.202686	264.98494
3719.723	234.05596	85.714286	266.22923
3737.024	234.05596	86.691087	266.38476
3754.325	233.90147	86.691087	267.31798
3771.626	233.90147	88.156288	267.62905
3788.927	233.90147	88.156288	267.78459
3806.228	234.36494	88.156288	268.40673
3823.529	234.05596	87.179487	268.56227
3840.83	234.21045	88.156288	269.33995
3858.131	234.05596	87.179487	269.33995
3875.433	233.90147	88.156288	269.80656
3892.734	233.90147	87.667888	270.27316
3910.035	234.05596	88.644689	271.05084
3927.336	234.21045	88.156288	271.05084
3944.637	234.05596	89.62149	271.67299
3961.938	234.05596	89.133089	271.36192
3979.239	233.438	88.644689	271.20638
3996.54	234.05596	88.156288	271.67299
4013.841	233.74698	88.644689	271.67299
4031.142	233.90147	88.156288	272.45067
4048.443	233.74698	89.133089	272.1396
4065.744	233.90147	90.10989	272.76174
4083.045	234.05596	89.133089	273.22835
4100.346	234.36494	89.62149	273.38388
4117.647	234.05596	90.10989	273.53942
4134.948	233.90147	89.133089	273.53942
4152.249	234.05596	89.62149	273.53942
4169.55	234.21045	90.10989	273.53942
4186.851	233.90147	90.10989	273.85049
4204.152	234.05596	91.086691	274.16156
4221.453	233.74698	92.063492	274.62817
4238.754	234.05596	90.598291	274.93924
4256.055	234.05596	91.086691	275.40585
4273.356	234.05596	91.086691	275.25032
4290.657	234.05596	89.62149	275.56139
4307.958	234.05596	90.10989	275.56139
4325.26		233.90147	92.063492	276.18353
4342.561	234.21045	90.10989	275.87246
4359.862	233.90147	90.598291	277.11675
4377.163	233.90147	90.598291	277.42782
4394.464	233.90147	90.598291	277.27228
4411.765	234.05596	92.551893	277.58336
4429.066	233.74698	90.598291	278.2055
4446.367	233.90147	90.10989	277.73889
4463.668	234.05596	91.575092	277.73889
4480.969	233.90147	92.063492	278.04996
4498.27		234.05596	92.063492	277.58336
4515.571	234.21045	91.575092	278.36104
4532.872	234.21045	93.040293	278.67211
4550.173	233.74698	92.063492	278.51657
4567.474	234.05596	92.063492	278.67211
4584.775	234.05596	92.063492	278.67211
4602.076	234.36494	91.086691	278.36104
4619.377	234.05596	91.086691	278.82764
4636.678	234.05596	92.063492	279.13872
4653.979	233.90147	91.086691	278.82764
4671.28		233.74698	92.551893	279.13872
4688.581	234.05596	92.551893	278.82764
4705.882	233.90147	92.551893	279.76086
4723.183	234.05596	92.063492	279.44979
4740.484	234.05596	92.063492	279.44979
4757.785	233.90147	92.063492	279.29425
4775.087	234.05596	91.575092	280.07193
4792.388	234.05596	92.063492	280.22747
4809.689	233.90147	93.040293	280.22747
4826.99	        234.05596 	92.551893	280.383
4844.291	234.05596	92.551893	279.76086
4861.592	234.21045	92.551893	280.383
4878.893	234.21045	92.551893	280.22747
4896.194	234.05596	91.086691	280.53854
4913.495	234.21045	93.040293	280.53854
4930.796	233.90147	92.551893	281.16068
4948.097	234.05596	92.551893	281.16068
4965.398	234.05596	93.040293	281.00515
4982.699	234.21045	92.063492	281.31622
