0.00001		0.0281	0.0000001	0.001
0.0000193	0.0354	0.0000001	0.001
0.0000317	0.0488	0.0000001	0.001
0.0000399	0.0557	0.0000001	0.001
0.0000517	0.064	0.0000001	0.001
0.0000622	0.0703	0.0000001	0.001
0.000071	0.0748	0.0000001	0.001
0.0000801	0.0788	0.0000001	0.001
0.0000913	0.0843	0.0000001	0.001
0.0001016	0.0874	0.0000001	0.001			
0.0001999	0.1123	0.0000001	0.001
0.0003074	0.1307	0.0000001	0.001
0.0004203	0.1438	0.0000001	0.001
0.0005156	0.1526	0.0000001	0.001
0.000616	0.1603	0.0000001	0.001
0.000693	0.1656	0.0000001	0.001
0.000799	0.172	0.0000001	0.001
0.000904	0.1776	0.0000001	0.001
0.0010011	0.1828	0.0000001	0.001	
0.003021	0.2378	0.0001		0.001
0.004928	0.2646	0.0001		0.001
0.00703		0.2855	0.0001		0.001
0.00912		0.3011	0.0001		0.001
0.01107		0.3131	0.0001		0.001
0.01292		0.3229	0.0001		0.001
0.01503		0.3326	0.0001		0.001
0.01689		0.3402	0.0001		0.001
0.01891		0.3476	0.0001		0.001
0.01996		0.3514	0.0001		0.001		
0.03006		0.3664	0.0001		0.001
0.04048		0.3877	0.0001		0.001
0.04992		0.403	0.0001		0.001
0.0622		0.4337	0.0001		0.001
0.0709		0.4443	0.0001		0.001
0.0805		0.4549	0.0001		0.001
0.0896		0.4642	0.0001		0.001
0.0991		0.4733	0.0001		0.001
