           0        6.69
           1        6.60
           2        6.50
           3        6.41
           4        6.33
           5        6.22
           6        6.14
           7        6.05
           8        5.97
           9        5.88
          10        5.79
          11        5.71
          12        5.63
          13        5.55
          14        5.47
          15        5.39
          16        5.31
          17        5.24
          18        5.17
          19        5.10
          20        5.01
          21        4.95
          22        4.88
          23        4.81
          24        4.74
          25        4.67
          26        4.61
          27        4.53
          28        4.47
          29        4.40
          30        4.33
          31        4.28
          32        4.22
          33        4.16
          34        4.09
          35        4.04
          36        3.98
          37        3.92
          38        3.87
          39        3.81
          40        3.76
          41        3.70
          42        3.65
          43        3.60
          44        3.55
          45        3.49
          46        3.44
          47        3.40
          48        3.35
          49        3.30
          50        3.25
          51        3.21
          52        3.16
          53        3.12
          54        3.08
          55        3.03
          56        2.99
          57        2.94
          58        2.91
          59        2.85
          60        2.82
          61        2.77
          62        2.74
          63        2.69
          64        2.66
          65        2.63
          66        2.58
          67        2.55
          68        2.51
          69        2.47
          70        2.44
          71        2.40
          72        2.36
          73        2.33
          74        2.30
          75        2.26
          76        2.24
          77        2.21
          78        2.17
          79        2.13
          80        2.10
          81        2.08
          82        2.05
          83        2.02
          84        1.99
          85        1.97
          86        1.93
          87        1.91
          88        1.88
          89        1.85
          90        1.83
          91        1.80
          92        1.77
          93        1.75
          94        1.73
          95        1.70
          96        1.67
          97        1.65
          98        1.63
          99        1.60
         100        1.58
         101        1.56
         102        1.53
         103        1.51
         104        1.49
         105        1.47
         106        1.44
         107        1.43
         108        1.41
         109        1.39
         110        1.36
         111        1.34
         112        1.33
         113        1.31
         114        1.29
         115        1.27
         116        1.26
         117        1.24
         118        1.23
         119        1.20
         120        1.19
         121        1.17
         122        1.15
         123        1.13
         124        1.13
         125        1.10
         126        1.08
         127        1.07
         128        1.06
         129        1.04
         130        1.02
         131        1.01
         132        1.00
         133        0.98
         134        0.97
         135        0.96
         136        0.95
         137        0.93
         138        0.91
         139        0.90
         140        0.89
         141        0.88
         142        0.86
         143        0.85
         144        0.84
         145        0.82
         146        0.81
         147        0.80
         148        0.79
         149        0.78
         150        0.77
         151        0.76
         152        0.74
         153        0.74
         154        0.73
         155        0.71
         156        0.71
         157        0.69
         158        0.68
         159        0.68
         160        0.67
         161        0.65
         162        0.64
         163        0.64
         164        0.62
         165        0.62
         166        0.61
         167        0.60
         168        0.59
         169        0.58
         170        0.57
         171        0.56
         172        0.56
         173        0.55
         174        0.54
         175        0.54
         176        0.53
         177        0.52
         178        0.51
         179        0.51
         180        0.50
         181        0.48
         182        0.48
         183        0.48
         184        0.48
         185        0.46
         186        0.46
         187        0.45
         188        0.45
         189        0.44
         190        0.43
         191        0.42
         192        0.42
         193        0.41
         194        0.40
         195        0.40
         196        0.40
         197        0.39
         198        0.38
         199        0.38
         200        0.37
         201        0.37
         202        0.36
         203        0.35
         204        0.35
         205        0.34
         206        0.34
         207        0.33
         208        0.33
         209        0.32
         210        0.32
         211        0.32
         212        0.31
         213        0.31
         214        0.30
         215        0.30
         216        0.29
         217        0.30
         218        0.28
         219        0.29
         220        0.28
         221        0.28
         222        0.27
         223        0.27
         224        0.27
         225        0.26
         226        0.26
         227        0.25
         228        0.25
         229        0.24
         230        0.24
         231        0.23
         232        0.23
         233        0.23
         234        0.22
         235        0.22
         236        0.22
         237        0.22
         238        0.21
         239        0.21
         240        0.20
         241        0.20
         242        0.20
         243        0.20
         244        0.19
         245        0.19
         246        0.19
         247        0.19
         248        0.19
         249        0.18
         250        0.18
         251        0.17
         252        0.18
         253        0.17
         254        0.17
         255        0.17
         256        0.16
         257        0.15
         258        0.15
         259        0.15
         260        0.15
         261        0.15
         262        0.15
         263        0.14
         264        0.15
         265        0.14
         266        0.14
         267        0.14
         268        0.14
         269        0.13
         270        0.13
         271        0.13
         272        0.13
         273        0.12
         274        0.13
         275        0.11
         276        0.12
         277        0.12
         278        0.11
         279        0.11
         280        0.11
         281        0.11
         282        0.11
         283        0.11
         284        0.11
         285        0.11
         286        0.10
         287        0.10
         288        0.10
         289        0.10
         290        0.09
         291        0.09
         292        0.09
         293        0.09
         294        0.09
         295        0.09
         296        0.09
         297        0.09
         298        0.09
         299        0.08
         300        0.09
         301        0.08
         302        0.08
         303        0.08
         304        0.08
         305        0.08
         306        0.08
         307        0.08
         308        0.07
         309        0.07
         310        0.07
         311        0.07
         312        0.07
         313        0.07
         314        0.07
         315        0.07
         316        0.07
         317        0.06
         318        0.07
         319        0.06
         320        0.06
         321        0.06
         322        0.06
         323        0.06
         324        0.06
         325        0.06
         326        0.06
         327        0.05
         328        0.05
         329        0.05
         330        0.05
         331        0.05
         332        0.05
         333        0.05
         334        0.05
         335        0.04
         336        0.05
         337        0.04
         338        0.04
         339        0.05
         340        0.05
         341        0.04
         342        0.04
         343        0.05
         344        0.04
         345        0.05
         346        0.04
         347        0.04
         348        0.04
         349        0.04
         350        0.04
