   6.23475998   3.20186837   10.8012453   10.2519611
   6.23686813   3.20564083   10.8414634   10.2761331
   6.23558721   3.20459704   10.8194086   10.2694422
   6.23494391   3.20436709   10.8146491   10.2679685
   6.23585621   3.19977101   10.7874723   10.2385345
   6.23590247   3.20080621   10.8034837   10.2451604
