   6.14305254   3.07518571   9.60529016   9.45676712
   6.14339668   3.07801056   9.62064029   9.474149
   6.14248654   3.08049185   9.63745417   9.48943002
   6.14245031   3.08152528   9.64161894   9.49579808
   6.14335942   3.08243818   9.65019282   9.50142511
   6.14340132   3.08327072   9.65710064   9.50655835
