120 1.0261093789	0.0119279777
200 0.776114245	0.0170288078
500 0.3817108233	0.0109580437
1000 0.2040631905	0.0073097804
2000 0.0953471135	0.0040702063
5000 0.0813387109	0.002140465
10000 0.066813143	0.0019043234
20000 0.057053651	0.0026417443
50000 0.0735007966	0.0049123185
100000 0.0493779802	0.0020175416
200000 0.0401740359	0.0018210306
500000 -0.077667657	-0.0053032349

