#      t [ms]       U [V]
         0.0        7.45
         0.5        7.26
         1.0        7.07
         1.5        6.89
         2.0        6.71
         2.5        6.54
         3.0        6.37
         3.5        6.21
         4.0        6.05
         4.5        5.90
         5.0        5.74
         5.5        5.61
         6.0        5.46
         6.5        5.31
         7.0        5.18
         7.5        5.04
         8.0        4.92
         8.5        4.79
         9.0        4.68
         9.5        4.55
        10.0        4.44
        10.5        4.33
        11.0        4.21
        11.5        4.10
        12.0        4.01
        12.5        3.90
        13.0        3.80
        13.5        3.69
        14.0        3.61
        14.5        3.52
        15.0        3.42
        15.5        3.34
        16.0        3.26
        16.5        3.17
        17.0        3.08
        17.5        3.01
        18.0        2.93
        18.5        2.86
        19.0        2.79
        19.5        2.72
        20.0        2.65
        20.5        2.58
        21.0        2.51
        21.5        2.46
        22.0        2.39
        22.5        2.33
        23.0        2.26
        23.5        2.21
        24.0        2.15
        24.5        2.10
        25.0        2.04
        25.5        1.99
        26.0        1.94
        26.5        1.90
        27.0        1.84
        27.5        1.80
        28.0        1.75
        28.5        1.71
        29.0        1.66
        29.5        1.63
        30.0        1.58
        30.5        1.55
        31.0        1.50
        31.5        1.46
        32.0        1.42
        32.5        1.39
        33.0        1.35
        33.5        1.32
        34.0        1.28
        34.5        1.26
        35.0        1.23
        35.5        1.19
        36.0        1.16
        36.5        1.13
        37.0        1.10
        37.5        1.08
        38.0        1.05
        38.5        1.02
        39.0        1.00
        39.5        0.97
        40.0        0.95
        40.5        0.93
        41.0        0.91
        41.5        0.87
        42.0        0.86
        42.5        0.83
        43.0        0.81
        43.5        0.79
        44.0        0.77
        44.5        0.76
        45.0        0.74
        45.5        0.72
        46.0        0.69
        46.5        0.67
        47.0        0.66
        47.5        0.65
        48.0        0.62
        48.5        0.61
        49.0        0.60
        49.5        0.58
        50.0        0.56
        50.5        0.55
        51.0        0.54
        51.5        0.52
        52.0        0.51
        52.5        0.50
        53.0        0.48
        53.5        0.48
        54.0        0.46
        54.5        0.45
        55.0        0.43
        55.5        0.43
        56.0        0.42
        56.5        0.41
        57.0        0.40
        57.5        0.38
        58.0        0.37
        58.5        0.36
        59.0        0.35
        59.5        0.35
        60.0        0.34
        60.5        0.33
        61.0        0.32
        61.5        0.32
        62.0        0.31
        62.5        0.30
        63.0        0.30
        63.5        0.29
        64.0        0.28
        64.5        0.27
        65.0        0.27
        65.5        0.26
        66.0        0.25
        66.5        0.24
        67.0        0.23
        67.5        0.24
        68.0        0.22
        68.5        0.23
        69.0        0.21
        69.5        0.21
        70.0        0.20
        70.5        0.20
        71.0        0.20
        71.5        0.19
        72.0        0.18
        72.5        0.18
        73.0        0.18
        73.5        0.18
        74.0        0.17
        74.5        0.16
        75.0        0.15
        75.5        0.17
        76.0        0.15
        76.5        0.15
        77.0        0.14
        77.5        0.14
        78.0        0.14
        78.5        0.13
        79.0        0.13
        79.5        0.13
        80.0        0.13
        80.5        0.11
        81.0        0.11
        81.5        0.11
        82.0        0.11
        82.5        0.11
        83.0        0.10
        83.5        0.11
        84.0        0.10
        84.5        0.10
        85.0        0.10
        85.5        0.10
        86.0        0.10
        86.5        0.09
        87.0        0.09
        87.5        0.08
        88.0        0.08
        88.5        0.08
        89.0        0.08
        89.5        0.08
        90.0        0.07
        90.5        0.07
        91.0        0.07
        91.5        0.07
        92.0        0.07
        92.5        0.07
        93.0        0.07
        93.5        0.06
        94.0        0.06
        94.5        0.07
        95.0        0.06
        95.5        0.06
        96.0        0.06
        96.5        0.06
        97.0        0.05
        97.5        0.05
        98.0        0.06
        98.5        0.05
        99.0        0.05
        99.5        0.05
       100.0        0.04
       100.5        0.04
       101.0        0.04
       101.5        0.05
       102.0        0.04
       102.5        0.04
       103.0        0.04
       103.5        0.04
       104.0        0.04
       104.5        0.04
       105.0        0.04
       105.5        0.03
       106.0        0.03
       106.5        0.03
       107.0        0.04
       107.5        0.03
       108.0        0.03
       108.5        0.04
       109.0        0.04
       109.5        0.03
       110.0        0.03
       110.5        0.03
       111.0        0.03
       111.5        0.03
       112.0        0.03
       112.5        0.03
       113.0        0.03
       113.5        0.03
       114.0        0.02
       114.5        0.02
       115.0        0.03
       115.5        0.02
       116.0        0.02
       116.5        0.03
       117.0        0.02
       117.5        0.02
       118.0        0.02
       118.5        0.02
       119.0        0.02
       119.5        0.02
       120.0        0.02
       120.5        0.02
       121.0        0.02
       121.5        0.02
       122.0        0.02
       122.5        0.02
       123.0        0.01
       123.5        0.02
       124.0        0.01
       124.5        0.01
       125.0        0.02
       125.5        0.02
       126.0        0.01
       126.5        0.01
       127.0        0.01
       127.5        0.02
       128.0        0.01
       128.5        0.01
       129.0        0.01
       129.5        0.01
       130.0        0.01
       130.5        0.01
       131.0        0.01
       131.5        0.01
       132.0        0.01
       132.5        0.01
       133.0        0.01
       133.5        0.01
       134.0        0.01
       134.5        0.01
       135.0        0.01
       135.5        0.02
       136.0        0.01
       136.5        0.01
       137.0        0.01
       137.5        0.01
       138.0        0.01
       138.5        0.01
       139.0        0.01
       139.5        0.01
       140.0        0.01
       140.5        0.01
       141.0        0.01
       141.5        0.01
       142.0        0.01
       142.5        0.01
       143.0        0.01
       143.5        0.01
       144.0        0.01
       144.5        0.01
       145.0        0.01
       145.5        0.01
       146.0        0.01
       146.5        0.01
       147.0        0.01
       147.5        0.01
       148.0        0.01
       148.5        0.01
       149.0        0.00
       149.5        0.01
       150.0        0.01
       150.5        0.01
       151.0        0.00
       151.5        0.01
       152.0        0.01
       152.5        0.01
       153.0        0.01
       153.5        0.01
       154.0        0.01
       154.5        0.01
       155.0        0.01
       155.5        0.01
       156.0        0.01
       156.5        0.01
       157.0        0.01
       157.5        0.00
       158.0        0.01
       158.5        0.01
       159.0        0.01
       159.5        0.01
       160.0        0.01
       160.5        0.01
       161.0        0.01
       161.5        0.01
       162.0        0.00
       162.5        0.01
       163.0        0.01
       163.5        0.00
       164.0        0.00
       164.5        0.00
       165.0        0.01
       165.5        0.00
       166.0        0.00
       166.5        0.01
       167.0        0.00
       167.5        0.00
       168.0        0.00
       168.5        0.01
       169.0        0.00
       169.5        0.00
       170.0        0.00
       170.5        0.00
       171.0        0.01
       171.5        0.00
       172.0        0.01
       172.5        0.00
       173.0        0.01
       173.5        0.00
       174.0        0.00
       174.5        0.00
       175.0        0.01
       175.5        0.00
       176.0        0.00
       176.5        0.00
       177.0        0.01
       177.5        0.00
       178.0        0.00
       178.5        0.01
       179.0        0.01
       179.5        0.00
       180.0        0.00
       180.5        0.00
       181.0        0.00
       181.5        0.00
       182.0        0.00
       182.5        0.00
       183.0        0.00
       183.5        0.00
       184.0        0.00
       184.5        0.01
       185.0        0.01
       185.5        0.00
       186.0        0.00
       186.5        0.00
       187.0        0.01
       187.5        0.01
       188.0        0.00
       188.5        0.00
       189.0        0.00
       189.5        0.01
       190.0        0.01
       190.5        0.00
       191.0        0.00
       191.5        0.01
       192.0        0.00
       192.5        0.00
       193.0        0.00
       193.5        0.01
       194.0        0.00
       194.5        0.00
       195.0        0.00
       195.5        0.01
       196.0        0.00
       196.5        0.00
       197.0        0.00
       197.5        0.00
       198.0        0.00
       198.5        0.00
       199.0        0.00
       199.5        0.00
       200.0        0.00
