#      t [ms]       U [V]
           0        6.89
           1        6.76
           2        6.64
           3        6.51
           4        6.40
           5        6.29
           6        6.17
           7        6.05
           8        5.94
           9        5.83
          10        5.72
          11        5.62
          12        5.51
          13        5.42
          14        5.31
          15        5.22
          16        5.12
          17        5.03
          18        4.93
          19        4.84
          20        4.76
          21        4.67
          22        4.58
          23        4.50
          24        4.42
          25        4.33
          26        4.25
          27        4.18
          28        4.10
          29        4.02
          30        3.94
          31        3.87
          32        3.80
          33        3.74
          34        3.67
          35        3.60
          36        3.53
          37        3.47
          38        3.40
          39        3.33
          40        3.28
          41        3.22
          42        3.15
          43        3.10
          44        3.04
          45        2.99
          46        2.93
          47        2.88
          48        2.82
          49        2.77
          50        2.72
          51        2.68
          52        2.63
          53        2.58
          54        2.53
          55        2.49
          56        2.44
          57        2.39
          58        2.35
          59        2.31
          60        2.26
          61        2.22
          62        2.18
          63        2.15
          64        2.10
          65        2.06
          66        2.02
          67        1.99
          68        1.95
          69        1.92
          70        1.87
          71        1.84
          72        1.81
          73        1.77
          74        1.74
          75        1.71
          76        1.68
          77        1.64
          78        1.61
          79        1.58
          80        1.56
          81        1.53
          82        1.50
          83        1.47
          84        1.45
          85        1.41
          86        1.40
          87        1.37
          88        1.34
          89        1.32
          90        1.30
          91        1.27
          92        1.26
          93        1.22
          94        1.20
          95        1.18
          96        1.16
          97        1.14
          98        1.11
          99        1.10
         100        1.08
         101        1.06
         102        1.04
         103        1.02
         104        1.00
         105        0.98
         106        0.96
         107        0.95
         108        0.93
         109        0.91
         110        0.89
         111        0.87
         112        0.86
         113        0.84
         114        0.83
         115        0.82
         116        0.80
         117        0.79
         118        0.77
         119        0.76
         120        0.74
         121        0.73
         122        0.71
         123        0.70
         124        0.69
         125        0.68
         126        0.66
         127        0.65
         128        0.64
         129        0.63
         130        0.62
         131        0.60
         132        0.60
         133        0.58
         134        0.58
         135        0.56
         136        0.55
         137        0.53
         138        0.53
         139        0.53
         140        0.51
         141        0.50
         142        0.49
         143        0.48
         144        0.47
         145        0.47
         146        0.45
         147        0.45
         148        0.44
         149        0.43
         150        0.43
         151        0.41
         152        0.41
         153        0.40
         154        0.40
         155        0.38
         156        0.38
         157        0.37
         158        0.37
         159        0.35
         160        0.35
         161        0.35
         162        0.34
         163        0.33
         164        0.33
         165        0.32
         166        0.32
         167        0.31
         168        0.31
         169        0.29
         170        0.29
         171        0.29
         172        0.28
         173        0.28
         174        0.27
         175        0.26
         176        0.26
         177        0.26
         178        0.25
         179        0.25
         180        0.24
         181        0.24
         182        0.23
         183        0.23
         184        0.23
         185        0.22
         186        0.22
         187        0.21
         188        0.21
         189        0.20
         190        0.20
         191        0.19
         192        0.19
         193        0.19
         194        0.18
         195        0.18
         196        0.18
         197        0.18
         198        0.16
         199        0.17
         200        0.17
         201        0.16
         202        0.16
         203        0.15
         204        0.15
         205        0.14
         206        0.15
         207        0.14
         208        0.14
         209        0.14
         210        0.14
         211        0.13
         212        0.14
         213        0.13
         214        0.13
         215        0.13
         216        0.13
         217        0.11
         218        0.11
         219        0.11
         220        0.11
         221        0.11
         222        0.11
         223        0.10
         224        0.10
         225        0.11
         226        0.10
         227        0.10
         228        0.10
         229        0.10
         230        0.09
         231        0.09
         232        0.09
         233        0.09
         234        0.09
         235        0.09
         236        0.08
         237        0.08
         238        0.08
         239        0.08
         240        0.07
         241        0.07
         242        0.07
         243        0.07
         244        0.07
         245        0.07
         246        0.06
         247        0.07
         248        0.06
         249        0.07
         250        0.06
         251        0.06
         252        0.06
         253        0.06
         254        0.06
         255        0.06
         256        0.05
         257        0.06
         258        0.05
         259        0.05
         260        0.05
         261        0.05
         262        0.05
         263        0.05
         264        0.05
         265        0.04
         266        0.05
         267        0.05
         268        0.04
         269        0.04
         270        0.04
         271        0.04
         272        0.04
         273        0.04
         274        0.04
         275        0.04
         276        0.04
         277        0.03
         278        0.04
         279        0.03
         280        0.04
         281        0.03
         282        0.04
         283        0.03
         284        0.03
         285        0.03
         286        0.03
         287        0.03
         288        0.03
         289        0.03
         290        0.02
         291        0.02
         292        0.03
         293        0.03
         294        0.02
         295        0.02
         296        0.02
         297        0.02
         298        0.02
         299        0.02
         300        0.02
