#      t [ms]       U [V]       v [V]
         0.0        0.06     6.91500
         0.5        0.11     6.85500
         1.0        0.18     6.79500
         1.5        0.22     6.75000
         2.0        0.28     6.69000
         2.5        0.33     6.64000
         3.0        0.40     6.57500
         3.5        0.44     6.53000
         4.0        0.49     6.48000
         4.5        0.55     6.42500
         5.0        0.60     6.37500
         5.5        0.65     6.32500
         6.0        0.70     6.27500
         6.5        0.75     6.22000
         7.0        0.80     6.17000
         7.5        0.84     6.12500
         8.0        0.90     6.07000
         8.5        0.95     6.02500
         9.0        1.00     5.97500
         9.5        1.04     5.93000
        10.0        1.10     5.87500
        10.5        1.14     5.83000
        11.0        1.19     5.78000
        11.5        1.23     5.74000
        12.0        1.28     5.69500
        12.5        1.33     5.64500
        13.0        1.37     5.60000
        13.5        1.42     5.55000
        14.0        1.46     5.51000
        14.5        1.50     5.46500
        15.0        1.55     5.42000
        15.5        1.59     5.37500
        16.0        1.64     5.33500
        16.5        1.68     5.29000
        17.0        1.72     5.25000
        17.5        1.76     5.20500
        18.0        1.81     5.16500
        18.5        1.84     5.12500
        19.0        1.89     5.08500
        19.5        1.93     5.03500
        20.0        1.97     5.00000
        20.5        2.01     4.96000
        21.0        2.05     4.92000
        21.5        2.09     4.88000
        22.0        2.14     4.83500
        22.5        2.17     4.80500
        23.0        2.21     4.76000
        23.5        2.25     4.72000
        24.0        2.28     4.69000
        24.5        2.32     4.65000
        25.0        2.37     4.60500
        25.5        2.39     4.58000
        26.0        2.44     4.53000
        26.5        2.47     4.50000
        27.0        2.51     4.46500
        27.5        2.54     4.43000
        28.0        2.58     4.39000
        28.5        2.61     4.36000
        29.0        2.65     4.32000
        29.5        2.69     4.28500
        30.0        2.73     4.24000
        30.5        2.75     4.22000
        31.0        2.78     4.18500
        31.5        2.83     4.14500
        32.0        2.85     4.11500
        32.5        2.89     4.08500
        33.0        2.92     4.04500
        33.5        2.95     4.02000
        34.0        2.99     3.98500
        34.5        3.01     3.95500
        35.0        3.05     3.92000
        35.5        3.08     3.89000
        36.0        3.11     3.86000
        36.5        3.15     3.82000
        37.0        3.17     3.80000
        37.5        3.20     3.77000
        38.0        3.24     3.73000
        38.5        3.26     3.70500
        39.0        3.29     3.67500
        39.5        3.33     3.64000
        40.0        3.36     3.61000
        40.5        3.39     3.58500
        41.0        3.42     3.55500
        41.5        3.44     3.53000
        42.0        3.47     3.49500
        42.5        3.50     3.47000
        43.0        3.53     3.44500
        43.5        3.55     3.42000
        44.0        3.58     3.39000
        44.5        3.61     3.36000
        45.0        3.64     3.33000
        45.5        3.66     3.31000
        46.0        3.69     3.27500
        46.5        3.71     3.26000
        47.0        3.74     3.23500
        47.5        3.76     3.20500
        48.0        3.80     3.17000
        48.5        3.83     3.14000
        49.0        3.84     3.13000
        49.5        3.87     3.10000
        50.0        3.89     3.08000
        50.5        3.92     3.05000
        51.0        3.94     3.03000
        51.5        3.97     3.00000
        52.0        3.99     2.98000
        52.5        4.02     2.95000
        53.0        4.04     2.93000
        53.5        4.06     2.91000
        54.0        4.08     2.89000
        54.5        4.12     2.85000
        55.0        4.13     2.84000
        55.5        4.15     2.81500
        56.0        4.18     2.79000
        56.5        4.20     2.77000
        57.0        4.22     2.75000
        57.5        4.24     2.73000
        58.0        4.27     2.70000
        58.5        4.29     2.67500
        59.0        4.31     2.66000
        59.5        4.33     2.63500
        60.0        4.36     2.61500
        60.5        4.37     2.60000
        61.0        4.39     2.58000
        61.5        4.42     2.55500
        62.0        4.44     2.53000
        62.5        4.46     2.51500
        63.0        4.47     2.49500
        63.5        4.50     2.47000
        64.0        4.51     2.45500
        64.5        4.54     2.43500
        65.0        4.56     2.41000
        65.5        4.57     2.39500
        66.0        4.60     2.37500
        66.5        4.61     2.35500
        67.0        4.64     2.33000
        67.5        4.65     2.31500
        68.0        4.68     2.29500
        68.5        4.69     2.28000
        69.0        4.71     2.26000
        69.5        4.73     2.24000
        70.0        4.75     2.22500
        70.5        4.76     2.21000
        71.0        4.79     2.18000
        71.5        4.80     2.17000
        72.0        4.82     2.15500
        72.5        4.83     2.14000
        73.0        4.86     2.11500
        73.5        4.87     2.10500
        74.0        4.89     2.08500
        74.5        4.90     2.06500
        75.0        4.92     2.05000
        75.5        4.93     2.04000
        76.0        4.96     2.01500
        76.5        4.97     1.99500
        77.0        4.98     1.99000
        77.5        5.00     1.97000
        78.0        5.03     1.94500
        78.5        5.04     1.93500
        79.0        5.04     1.92500
        79.5        5.07     1.90500
        80.0        5.08     1.89000
        80.5        5.10     1.87000
        81.0        5.11     1.86500
        81.5        5.13     1.84000
        82.0        5.14     1.83500
        82.5        5.15     1.81500
        83.0        5.17     1.80000
        83.5        5.18     1.78500
        84.0        5.19     1.77500
        84.5        5.21     1.76000
        85.0        5.22     1.74500
        85.5        5.25     1.72500
        86.0        5.25     1.71500
        86.5        5.27     1.70000
        87.0        5.29     1.68500
        87.5        5.29     1.67500
        88.0        5.31     1.66000
        88.5        5.32     1.65000
        89.0        5.33     1.63500
        89.5        5.35     1.61500
        90.0        5.37     1.60500
        90.5        5.37     1.60000
        91.0        5.39     1.58000
        91.5        5.40     1.57000
        92.0        5.41     1.56000
        92.5        5.42     1.54500
        93.0        5.43     1.53500
        93.5        5.46     1.51500
        94.0        5.46     1.50500
        94.5        5.47     1.49500
        95.0        5.49     1.48500
        95.5        5.50     1.47500
        96.0        5.51     1.46000
        96.5        5.53     1.44500
        97.0        5.54     1.43500
        97.5        5.55     1.42000
        98.0        5.56     1.41000
        98.5        5.57     1.40500
        99.0        5.57     1.39500
        99.5        5.59     1.38000
       100.0        5.61     1.36500
       100.5        5.61     1.36000
       101.0        5.63     1.34500
       101.5        5.64     1.33000
       102.0        5.65     1.32000
       102.5        5.66     1.31000
       103.0        5.67     1.30500
       103.5        5.68     1.29000
       104.0        5.69     1.28000
       104.5        5.70     1.27000
       105.0        5.71     1.25500
       105.5        5.72     1.25000
       106.0        5.73     1.24000
       106.5        5.74     1.23000
       107.0        5.75     1.21500
       107.5        5.76     1.21000
       108.0        5.77     1.20000
       108.5        5.78     1.19000
       109.0        5.79     1.18000
       109.5        5.80     1.17000
       110.0        5.81     1.16500
       110.5        5.82     1.15500
       111.0        5.83     1.14000
       111.5        5.83     1.13500
       112.0        5.85     1.12500
       112.5        5.86     1.11500
       113.0        5.86     1.10500
       113.5        5.87     1.10000
       114.0        5.89     1.08000
       114.5        5.90     1.07500
       115.0        5.90     1.07000
       115.5        5.90     1.06500
       116.0        5.92     1.05500
       116.5        5.93     1.04000
       117.0        5.93     1.04000
       117.5        5.94     1.03000
       118.0        5.95     1.01500
       118.5        5.97     1.00500
       119.0        5.97     1.00500
       119.5        5.97     0.99500
       120.0        5.99     0.98500
       120.5        5.99     0.97500
       121.0        6.00     0.97000
       121.5        6.01     0.96500
       122.0        6.01     0.95500
       122.5        6.02     0.95000
       123.0        6.03     0.93500
       123.5        6.03     0.93500
       124.0        6.04     0.93000
       124.5        6.06     0.91500
       125.0        6.06     0.91000
       125.5        6.07     0.90000
       126.0        6.07     0.89500
       126.5        6.08     0.89000
       127.0        6.09     0.88000
       127.5        6.10     0.87000
       128.0        6.10     0.87000
       128.5        6.11     0.86000
       129.0        6.12     0.85000
       129.5        6.12     0.85000
       130.0        6.13     0.84500
       130.5        6.14     0.83000
       131.0        6.15     0.82000
       131.5        6.15     0.81500
       132.0        6.15     0.81500
       132.5        6.17     0.80500
       133.0        6.18     0.79000
       133.5        6.17     0.80000
       134.0        6.18     0.79000
       134.5        6.19     0.77500
       135.0        6.20     0.77000
       135.5        6.20     0.77000
       136.0        6.21     0.76000
       136.5        6.22     0.75500
       137.0        6.22     0.75000
       137.5        6.22     0.74500
       138.0        6.24     0.73500
       138.5        6.24     0.73500
       139.0        6.25     0.72500
       139.5        6.25     0.72000
       140.0        6.25     0.71500
       140.5        6.25     0.71500
       141.0        6.27     0.70000
       141.5        6.27     0.70000
       142.0        6.27     0.69500
       142.5        6.29     0.68500
       143.0        6.29     0.67500
       143.5        6.30     0.67000
       144.0        6.30     0.67000
       144.5        6.31     0.66500
       145.0        6.31     0.66000
       145.5        6.33     0.64500
       146.0        6.33     0.64500
       146.5        6.33     0.64000
       147.0        6.33     0.63500
       147.5        6.34     0.63000
       148.0        6.35     0.62500
       148.5        6.35     0.62000
       149.0        6.35     0.62000
       149.5        6.36     0.61000
       150.0        6.37     0.60000
       150.5        6.37     0.60500
       151.0        6.38     0.59500
       151.5        6.38     0.59000
       152.0        6.39     0.58000
       152.5        6.39     0.57500
       153.0        6.39     0.57500
       153.5        6.40     0.57000
       154.0        6.40     0.57000
       154.5        6.41     0.56500
       155.0        6.41     0.56000
       155.5        6.42     0.55500
       156.0        6.42     0.55000
       156.5        6.43     0.54500
       157.0        6.43     0.54000
       157.5        6.43     0.53500
       158.0        6.43     0.53500
       158.5        6.44     0.53000
       159.0        6.44     0.52500
       159.5        6.46     0.51500
       160.0        6.46     0.51500
       160.5        6.46     0.51500
       161.0        6.46     0.50500
       161.5        6.46     0.50500
       162.0        6.47     0.50000
       162.5        6.47     0.49500
       163.0        6.48     0.49000
       163.5        6.49     0.48500
       164.0        6.49     0.48500
       164.5        6.49     0.48000
       165.0        6.50     0.47500
       165.5        6.50     0.47000
       166.0        6.51     0.46000
       166.5        6.51     0.46000
       167.0        6.51     0.46000
       167.5        6.51     0.46000
       168.0        6.53     0.44500
       168.5        6.52     0.45000
       169.0        6.53     0.44000
       169.5        6.53     0.44000
       170.0        6.54     0.43500
       170.5        6.54     0.43500
       171.0        6.54     0.43500
       171.5        6.54     0.42500
       172.0        6.55     0.42000
       172.5        6.56     0.41500
       173.0        6.56     0.41500
       173.5        6.56     0.41000
       174.0        6.56     0.41000
       174.5        6.56     0.41000
       175.0        6.57     0.40500
       175.5        6.57     0.40000
       176.0        6.58     0.39500
       176.5        6.58     0.39500
       177.0        6.58     0.39000
       177.5        6.58     0.38500
       178.0        6.58     0.38500
       178.5        6.59     0.38000
       179.0        6.59     0.38000
       179.5        6.60     0.37000
       180.0        6.61     0.36500
       180.5        6.61     0.36500
       181.0        6.61     0.36500
       181.5        6.61     0.36500
       182.0        6.61     0.36000
       182.5        6.62     0.35000
       183.0        6.61     0.35500
       183.5        6.61     0.35500
       184.0        6.62     0.35000
       184.5        6.63     0.34000
       185.0        6.63     0.34500
       185.5        6.63     0.33500
       186.0        6.63     0.33500
       186.5        6.64     0.33000
       187.0        6.64     0.33000
       187.5        6.64     0.33000
       188.0        6.65     0.32500
       188.5        6.65     0.32500
       189.0        6.65     0.32500
       189.5        6.65     0.32000
       190.0        6.65     0.31500
       190.5        6.65     0.31500
       191.0        6.65     0.31500
       191.5        6.67     0.30500
       192.0        6.67     0.30500
       192.5        6.67     0.30000
       193.0        6.67     0.30500
       193.5        6.67     0.29500
       194.0        6.68     0.29000
       194.5        6.67     0.29500
       195.0        6.68     0.29000
       195.5        6.69     0.28500
       196.0        6.69     0.28500
       196.5        6.69     0.28500
       197.0        6.69     0.28000
       197.5        6.69     0.27500
       198.0        6.69     0.28000
       198.5        6.69     0.27500
       199.0        6.71     0.26500
       199.5        6.70     0.27000
       200.0        6.70     0.27000
       200.5        6.70     0.27000
       201.0        6.71     0.25500
       201.5        6.71     0.26500
       202.0        6.71     0.26500
       202.5        6.71     0.25500
       203.0        6.72     0.25000
       203.5        6.71     0.25500
       204.0        6.72     0.25000
       204.5        6.72     0.25000
       205.0        6.73     0.24500
       205.5        6.73     0.24500
       206.0        6.73     0.24500
       206.5        6.73     0.24000
       207.0        6.73     0.24000
       207.5        6.74     0.23500
       208.0        6.74     0.23000
       208.5        6.74     0.23000
       209.0        6.74     0.23500
       209.5        6.74     0.23000
       210.0        6.74     0.23000
       210.5        6.75     0.22000
       211.0        6.75     0.22500
       211.5        6.75     0.21500
       212.0        6.75     0.21500
       212.5        6.75     0.22000
       213.0        6.75     0.21500
       213.5        6.76     0.21000
       214.0        6.76     0.21000
       214.5        6.76     0.20500
       215.0        6.76     0.20500
       215.5        6.76     0.20500
       216.0        6.76     0.20500
       216.5        6.76     0.21000
       217.0        6.76     0.20500
       217.5        6.78     0.19500
       218.0        6.78     0.19500
       218.5        6.77     0.20000
       219.0        6.78     0.19500
       219.5        6.78     0.19500
       220.0        6.77     0.20000
       220.5        6.78     0.18500
       221.0        6.78     0.18500
       221.5        6.79     0.18000
       222.0        6.78     0.19000
       222.5        6.78     0.18500
       223.0        6.78     0.18500
       223.5        6.78     0.19000
       224.0        6.79     0.17500
       224.5        6.79     0.18000
       225.0        6.79     0.18000
       225.5        6.79     0.17500
       226.0        6.79     0.17500
       226.5        6.80     0.17000
       227.0        6.80     0.17000
       227.5        6.81     0.16500
       228.0        6.81     0.16500
       228.5        6.80     0.17000
       229.0        6.81     0.16500
       229.5        6.81     0.16500
       230.0        6.81     0.16000
       230.5        6.81     0.16000
       231.0        6.81     0.16000
       231.5        6.81     0.16000
       232.0        6.82     0.15500
       232.5        6.81     0.16000
       233.0        6.82     0.15500
       233.5        6.82     0.15500
       234.0        6.82     0.15000
       234.5        6.82     0.14500
       235.0        6.82     0.14500
       235.5        6.82     0.15500
       236.0        6.82     0.15000
       236.5        6.82     0.14500
       237.0        6.82     0.14500
       237.5        6.82     0.14500
       238.0        6.82     0.14500
       238.5        6.82     0.14500
       239.0        6.83     0.13500
       239.5        6.83     0.14000
       240.0        6.83     0.14000
       240.5        6.83     0.13500
       241.0        6.83     0.13500
       241.5        6.83     0.14000
       242.0        6.83     0.13500
       242.5        6.83     0.13500
       243.0        6.84     0.13000
       243.5        6.84     0.13000
       244.0        6.85     0.12500
       244.5        6.85     0.12500
       245.0        6.84     0.13000
       245.5        6.85     0.12500
       246.0        6.85     0.12500
       246.5        6.85     0.12500
       247.0        6.85     0.12500
       247.5        6.86     0.11500
       248.0        6.85     0.12500
       248.5        6.86     0.11500
       249.0        6.85     0.12000
       249.5        6.86     0.11500
       250.0        6.86     0.11500
